{
    "end_station": {
        "code": "BARTOLO_NORD_CAP",
        "latitude": "45.673634",
        "lines": "&nbsp;<a href=\"http://www.ratbv.ro/route/38/tour/\">28</a>, &nbsp;<a href=\"http://www.ratbv.ro/route/24/tour/\">29</a>",
        "longitude": "25.562353",
        "name": "Bartolomeu Nord"
    },
    "number": "29",
    "start_station": {
        "code": "GARA",
        "latitude": "45.660703",
        "lines": "&nbsp;<a href=\"http://www.ratbv.ro/route/17/tour/\">17B</a>, &nbsp;<a href=\"http://www.ratbv.ro/route/24/tour/\">29</a>, &nbsp;<a href=\"http://www.ratbv.ro/route/27/tour/\">32</a>, &nbsp;<a href=\"http://www.ratbv.ro/route/30/tour/\">35</a>, &nbsp;<a href=\"http://www.ratbv.ro/route/32/tour/\">37</a>, &nbsp;<a href=\"http://www.ratbv.ro/route/4/tour/\">4</a>, &nbsp;<a href=\"http://www.ratbv.ro/route/33/tour/\">40</a>, &nbsp;<a href=\"http://www.ratbv.ro/route/34/tour/\">51</a>",
        "longitude": "25.613443",
        "name": "Gara Brasov"
    },
    "waypoints": [
        {
            "code": "GARII_FAGET",
            "latitude": "45.660388",
            "lines": "&nbsp;<a href=\"http://www.ratbv.ro/route/37/tour/\">23</a>, &nbsp;<a href=\"http://www.ratbv.ro/route/21/tour/\">23B</a>, &nbsp;<a href=\"http://www.ratbv.ro/route/23/tour/\">25</a>, &nbsp;<a href=\"http://www.ratbv.ro/route/24/tour/\">29</a>, &nbsp;<a href=\"http://www.ratbv.ro/route/33/tour/\">40</a>, &nbsp;<a href=\"http://www.ratbv.ro/route/8/tour/\">8</a>",
            "longitude": "25.612207",
            "name": "Bd. Garii"
        },
        {
            "code": "FAGET",
            "latitude": "45.660975",
            "lines": "&nbsp;<a href=\"http://www.ratbv.ro/route/2/tour/\">2</a>, &nbsp;<a href=\"http://www.ratbv.ro/route/24/tour/\">29</a>, &nbsp;<a href=\"http://www.ratbv.ro/route/31/tour/\">36</a>, &nbsp;<a href=\"http://www.ratbv.ro/route/8/tour/\">8</a>",
            "longitude": "25.607835",
            "name": "Faget"
        },
        {
            "code": "SPITAL_TRACT_I",
            "latitude": "45.665877",
            "lines": "&nbsp;<a href=\"http://www.ratbv.ro/route/14/tour/\">15</a>, &nbsp;<a href=\"http://www.ratbv.ro/route/24/tour/\">29</a>, &nbsp;<a href=\"http://www.ratbv.ro/route/31/tour/\">36</a>, &nbsp;<a href=\"http://www.ratbv.ro/route/9/tour/\">9</a>",
            "longitude": "25.608776",
            "name": "Spital Tractorul"
        },
        {
            "code": "PIATA_TRACT_I",
            "latitude": "45.66622",
            "lines": "&nbsp;<a href=\"http://www.ratbv.ro/route/14/tour/\">15</a>, &nbsp;<a href=\"http://www.ratbv.ro/route/24/tour/\">29</a>, &nbsp;<a href=\"http://www.ratbv.ro/route/31/tour/\">36</a>, &nbsp;<a href=\"http://www.ratbv.ro/route/9/tour/\">9</a>",
            "longitude": "25.603358",
            "name": "Piata Tractorul"
        },
        {
            "code": "1DEC1918_I",
            "latitude": "45.666505",
            "lines": "&nbsp;<a href=\"http://www.ratbv.ro/route/14/tour/\">15</a>, &nbsp;<a href=\"http://www.ratbv.ro/route/24/tour/\">29</a>, &nbsp;<a href=\"http://www.ratbv.ro/route/31/tour/\">36</a>, &nbsp;<a href=\"http://www.ratbv.ro/route/9/tour/\">9</a>",
            "longitude": "25.598147",
            "name": "1 Decembrie 1918"
        },
        {
            "code": "HUNIADE_I",
            "latitude": "45.666448",
            "lines": "&nbsp;<a href=\"http://www.ratbv.ro/route/24/tour/\">29</a>, &nbsp;<a href=\"http://www.ratbv.ro/route/9/tour/\">9</a>",
            "longitude": "25.588827",
            "name": "Huniade"
        },
        {
            "code": "TEODOROIU_I",
            "latitude": "45.665399",
            "lines": "&nbsp;<a href=\"http://www.ratbv.ro/route/24/tour/\">29</a>, &nbsp;<a href=\"http://www.ratbv.ro/route/9/tour/\">9</a>",
            "longitude": "25.584044",
            "name": "Ec. Teodoroiu"
        },
        {
            "code": "COSMESTI",
            "latitude": "45.666521",
            "lines": "&nbsp;<a href=\"http://www.ratbv.ro/route/23/tour/\">25</a>, &nbsp;<a href=\"http://www.ratbv.ro/route/24/tour/\">29</a>, &nbsp;<a href=\"http://www.ratbv.ro/route/41/tour/\">41</a>",
            "longitude": "25.579214",
            "name": "Cosmesti"
        },
        {
            "code": "ZLATNA_BART",
            "latitude": "45.666772",
            "lines": "&nbsp;<a href=\"http://www.ratbv.ro/route/23/tour/\">25</a>, &nbsp;<a href=\"http://www.ratbv.ro/route/24/tour/\">29</a>",
            "longitude": "25.574782",
            "name": "Zlatna"
        },
        {
            "code": "LANII_POSTA_I",
            "latitude": "45.667863",
            "lines": "&nbsp;<a href=\"http://www.ratbv.ro/route/38/tour/\">28</a>, &nbsp;<a href=\"http://www.ratbv.ro/route/24/tour/\">29</a>",
            "longitude": "25.571041",
            "name": "Posta"
        },
        {
            "code": "CAMINE_IAR_I",
            "latitude": "45.670902",
            "lines": "&nbsp;<a href=\"http://www.ratbv.ro/route/38/tour/\">28</a>, &nbsp;<a href=\"http://www.ratbv.ro/route/24/tour/\">29</a>",
            "longitude": "25.565861",
            "name": "Camine IAR"
        }
    ]
}
