{
    "end_station": {
        "code": "GARA",
        "latitude": "45.660703",
        "lines": "&nbsp;<a href=\"http://www.ratbv.ro/route/17/tour/\">17B</a>, &nbsp;<a href=\"http://www.ratbv.ro/route/24/tour/\">29</a>, &nbsp;<a href=\"http://www.ratbv.ro/route/27/tour/\">32</a>, &nbsp;<a href=\"http://www.ratbv.ro/route/30/tour/\">35</a>, &nbsp;<a href=\"http://www.ratbv.ro/route/32/tour/\">37</a>, &nbsp;<a href=\"http://www.ratbv.ro/route/4/tour/\">4</a>, &nbsp;<a href=\"http://www.ratbv.ro/route/33/tour/\">40</a>, &nbsp;<a href=\"http://www.ratbv.ro/route/34/tour/\">51</a>",
        "longitude": "25.613443",
        "name": "Gara Brasov"
    },
    "number": "32",
    "start_station": {
        "code": "VALEA_CETATII_CAP",
        "latitude": "45.630667",
        "lines": "&nbsp;<a href=\"http://www.ratbv.ro/route/10/tour/\">10</a>, &nbsp;<a href=\"http://www.ratbv.ro/route/26/tour/\">31</a>, &nbsp;<a href=\"http://www.ratbv.ro/route/27/tour/\">32</a>, &nbsp;<a href=\"http://www.ratbv.ro/route/28/tour/\">33</a>",
        "longitude": "25.601719",
        "name": "Valea Cetatii"
    },
    "waypoints": [
        {
            "code": "FRAGILOR_D",
            "latitude": "45.633059",
            "lines": "&nbsp;<a href=\"http://www.ratbv.ro/route/10/tour/\">10</a>, &nbsp;<a href=\"http://www.ratbv.ro/route/26/tour/\">31</a>, &nbsp;<a href=\"http://www.ratbv.ro/route/27/tour/\">32</a>, &nbsp;<a href=\"http://www.ratbv.ro/route/28/tour/\">33</a>",
            "longitude": "25.60556",
            "name": "Fragilor"
        },
        {
            "code": "SC_GEN_20_D",
            "latitude": "45.636526",
            "lines": "&nbsp;<a href=\"http://www.ratbv.ro/route/10/tour/\">10</a>, &nbsp;<a href=\"http://www.ratbv.ro/route/26/tour/\">31</a>, &nbsp;<a href=\"http://www.ratbv.ro/route/27/tour/\">32</a>, &nbsp;<a href=\"http://www.ratbv.ro/route/28/tour/\">33</a>",
            "longitude": "25.608758",
            "name": "Sc. Gen. 20"
        },
        {
            "code": "MUNCII_D",
            "latitude": "45.639171",
            "lines": "&nbsp;<a href=\"http://www.ratbv.ro/route/10/tour/\">10</a>, &nbsp;<a href=\"http://www.ratbv.ro/route/26/tour/\">31</a>, &nbsp;<a href=\"http://www.ratbv.ro/route/27/tour/\">32</a>, &nbsp;<a href=\"http://www.ratbv.ro/route/28/tour/\">33</a>",
            "longitude": "25.61071",
            "name": "Muncii"
        },
        {
            "code": "CARPATIILOR_D",
            "latitude": "45.641939",
            "lines": "&nbsp;<a href=\"http://www.ratbv.ro/route/10/tour/\">10</a>, &nbsp;<a href=\"http://www.ratbv.ro/route/26/tour/\">31</a>, &nbsp;<a href=\"http://www.ratbv.ro/route/27/tour/\">32</a>, &nbsp;<a href=\"http://www.ratbv.ro/route/28/tour/\">33</a>",
            "longitude": "25.6156",
            "name": "Carpatilor"
        },
        {
            "code": "PIATA_DECEB_D",
            "latitude": "45.644142",
            "lines": "&nbsp;<a href=\"http://www.ratbv.ro/route/10/tour/\">10</a>, &nbsp;<a href=\"http://www.ratbv.ro/route/26/tour/\">31</a>, &nbsp;<a href=\"http://www.ratbv.ro/route/27/tour/\">32</a>",
            "longitude": "25.618169",
            "name": "Piata Decebal"
        },
        {
            "code": "SPIT_JUD_D",
            "latitude": "45.648635",
            "lines": "&nbsp;<a href=\"http://www.ratbv.ro/route/10/tour/\">10</a>, &nbsp;<a href=\"http://www.ratbv.ro/route/16/tour/\">17</a>, &nbsp;<a href=\"http://www.ratbv.ro/route/26/tour/\">31</a>, &nbsp;<a href=\"http://www.ratbv.ro/route/27/tour/\">32</a>, &nbsp;<a href=\"http://www.ratbv.ro/route/30/tour/\">35</a>, &nbsp;<a href=\"http://www.ratbv.ro/route/35/tour/\">5</a>",
            "longitude": "25.618754",
            "name": "Judetean"
        },
        {
            "code": "TOAMNEI",
            "latitude": "45.652518",
            "lines": "&nbsp;<a href=\"http://www.ratbv.ro/route/10/tour/\">10</a>, &nbsp;<a href=\"http://www.ratbv.ro/route/16/tour/\">17</a>, &nbsp;<a href=\"http://www.ratbv.ro/route/20/tour/\">22</a>, &nbsp;<a href=\"http://www.ratbv.ro/route/26/tour/\">31</a>, &nbsp;<a href=\"http://www.ratbv.ro/route/27/tour/\">32</a>, &nbsp;<a href=\"http://www.ratbv.ro/route/39/tour/\">34</a>, &nbsp;<a href=\"http://www.ratbv.ro/route/30/tour/\">35</a>, &nbsp;<a href=\"http://www.ratbv.ro/route/35/tour/\">5</a>",
            "longitude": "25.615621",
            "name": "Toamnei"
        },
        {
            "code": "INFOSTAR_I",
            "latitude": "45.65503",
            "lines": "&nbsp;<a href=\"http://www.ratbv.ro/route/27/tour/\">32</a>, &nbsp;<a href=\"http://www.ratbv.ro/route/29/tour/\">34B</a>, &nbsp;<a href=\"http://www.ratbv.ro/route/30/tour/\">35</a>, &nbsp;<a href=\"http://www.ratbv.ro/route/32/tour/\">37</a>, &nbsp;<a href=\"http://www.ratbv.ro/route/4/tour/\">4</a>",
            "longitude": "25.612535",
            "name": "Infostar"
        },
        {
            "code": "RAPID",
            "latitude": "45.659143",
            "lines": "&nbsp;<a href=\"http://www.ratbv.ro/route/27/tour/\">32</a>, &nbsp;<a href=\"http://www.ratbv.ro/route/29/tour/\">34B</a>, &nbsp;<a href=\"http://www.ratbv.ro/route/30/tour/\">35</a>, &nbsp;<a href=\"http://www.ratbv.ro/route/32/tour/\">37</a>, &nbsp;<a href=\"http://www.ratbv.ro/route/4/tour/\">4</a>",
            "longitude": "25.61332",
            "name": "Rapid"
        }
    ]
}
