{
    "end_station": {
        "code": "BARTOLO_NORD_CAP",
        "latitude": "45.673634",
        "lines": "&nbsp;<a href=\"http://www.ratbv.ro/route/38/tour/\">28</a>, &nbsp;<a href=\"http://www.ratbv.ro/route/24/tour/\">29</a>",
        "longitude": "25.562353",
        "name": "Bartolomeu Nord"
    },
    "number": "28B",
    "start_station": {
        "code": "LIVADA_POSTEI",
        "latitude": "45.645656",
        "lines": "&nbsp;<a href=\"http://www.ratbv.ro/route/1/tour/\">1</a>, &nbsp;<a href=\"http://www.ratbv.ro/route/13/tour/\">14</a>, &nbsp;<a href=\"http://www.ratbv.ro/route/15/tour/\">16</a>, &nbsp;<a href=\"http://www.ratbv.ro/route/16/tour/\">17</a>, &nbsp;<a href=\"http://www.ratbv.ro/route/2/tour/\">2</a>, &nbsp;<a href=\"http://www.ratbv.ro/route/18/tour/\">20</a>, &nbsp;<a href=\"http://www.ratbv.ro/route/22/tour/\">24</a>, &nbsp;<a href=\"http://www.ratbv.ro/route/38/tour/\">28</a>, &nbsp;<a href=\"http://www.ratbv.ro/route/26/tour/\">31</a>, &nbsp;<a href=\"http://www.ratbv.ro/route/39/tour/\">34</a>, &nbsp;<a href=\"http://www.ratbv.ro/route/29/tour/\">34B</a>, &nbsp;<a href=\"http://www.ratbv.ro/route/31/tour/\">36</a>, &nbsp;<a href=\"http://www.ratbv.ro/route/32/tour/\">37</a>, &nbsp;<a href=\"http://www.ratbv.ro/route/4/tour/\">4</a>, &nbsp;<a href=\"http://www.ratbv.ro/route/41/tour/\">41</a>, &nbsp;<a href=\"http://www.ratbv.ro/route/44/tour/\">50</a>, &nbsp;<a href=\"http://www.ratbv.ro/route/6/tour/\">6</a>",
        "longitude": "25.588199",
        "name": "Livada Postei"
    },
    "waypoints": [
        {
            "code": "LUNGA_1I",
            "latitude": "45.647232",
            "lines": "&nbsp;<a href=\"http://www.ratbv.ro/route/13/tour/\">14</a>, &nbsp;<a href=\"http://www.ratbv.ro/route/22/tour/\">24</a>, &nbsp;<a href=\"http://www.ratbv.ro/route/38/tour/\">28</a>, &nbsp;<a href=\"http://www.ratbv.ro/route/35/tour/\">5</a>",
            "longitude": "25.589167",
            "name": "Astra"
        },
        {
            "code": "LUNGA_2I",
            "latitude": "45.652433",
            "lines": "&nbsp;<a href=\"http://www.ratbv.ro/route/13/tour/\">14</a>, &nbsp;<a href=\"http://www.ratbv.ro/route/22/tour/\">24</a>, &nbsp;<a href=\"http://www.ratbv.ro/route/38/tour/\">28</a>, &nbsp;<a href=\"http://www.ratbv.ro/route/35/tour/\">5</a>",
            "longitude": "25.585493",
            "name": "Bisericii Romane"
        },
        {
            "code": "LUNGA_3I",
            "latitude": "45.655088",
            "lines": "&nbsp;<a href=\"http://www.ratbv.ro/route/13/tour/\">14</a>, &nbsp;<a href=\"http://www.ratbv.ro/route/22/tour/\">24</a>, &nbsp;<a href=\"http://www.ratbv.ro/route/38/tour/\">28</a>, &nbsp;<a href=\"http://www.ratbv.ro/route/35/tour/\">5</a>",
            "longitude": "25.58294",
            "name": "Memorandului"
        },
        {
            "code": "LUNGA_4I",
            "latitude": "45.659107",
            "lines": "&nbsp;<a href=\"http://www.ratbv.ro/route/13/tour/\">14</a>, &nbsp;<a href=\"http://www.ratbv.ro/route/22/tour/\">24</a>, &nbsp;<a href=\"http://www.ratbv.ro/route/38/tour/\">28</a>, &nbsp;<a href=\"http://www.ratbv.ro/route/35/tour/\">5</a>",
            "longitude": "25.580279",
            "name": "Carierei"
        },
        {
            "code": "CAL_FAGA_I",
            "latitude": "45.663035",
            "lines": "&nbsp;<a href=\"http://www.ratbv.ro/route/15/tour/\">16</a>, &nbsp;<a href=\"http://www.ratbv.ro/route/37/tour/\">23</a>, &nbsp;<a href=\"http://www.ratbv.ro/route/21/tour/\">23B</a>, &nbsp;<a href=\"http://www.ratbv.ro/route/22/tour/\">24</a>, &nbsp;<a href=\"http://www.ratbv.ro/route/38/tour/\">28</a>, &nbsp;<a href=\"http://www.ratbv.ro/route/35/tour/\">5</a>, &nbsp;<a href=\"http://www.ratbv.ro/route/9/tour/\">9</a>",
            "longitude": "25.576314",
            "name": "Bartolomeu Gara"
        },
        {
            "code": "SERVICE_DEPOZITE",
            "latitude": "45.659584",
            "lines": "&nbsp;<a href=\"http://www.ratbv.ro/route/15/tour/\">16</a>, &nbsp;<a href=\"http://www.ratbv.ro/route/37/tour/\">23</a>, &nbsp;<a href=\"http://www.ratbv.ro/route/38/tour/\">28</a>, &nbsp;<a href=\"http://www.ratbv.ro/route/5/tour/\">5M</a>",
            "longitude": "25.566596",
            "name": "Service"
        },
        {
            "code": "ROPLANT_I",
            "latitude": "45.660783",
            "lines": "&nbsp;<a href=\"http://www.ratbv.ro/route/22/tour/\">24</a>, &nbsp;<a href=\"http://www.ratbv.ro/route/38/tour/\">28</a>",
            "longitude": "25.55569",
            "name": "Roplant"
        },
        {
            "code": "FACULT_28_I",
            "latitude": "45.661001",
            "lines": "&nbsp;<a href=\"http://www.ratbv.ro/route/22/tour/\">24</a>, &nbsp;<a href=\"http://www.ratbv.ro/route/38/tour/\">28</a>",
            "longitude": "25.562221",
            "name": "Facultativa"
        },
        {
            "code": "LANURILOR_I",
            "latitude": "45.662388",
            "lines": "&nbsp;<a href=\"http://www.ratbv.ro/route/22/tour/\">24</a>, &nbsp;<a href=\"http://www.ratbv.ro/route/38/tour/\">28</a>",
            "longitude": "25.567731",
            "name": "Lanurilor"
        },
        {
            "code": "VECTRA",
            "latitude": "45.664073",
            "lines": "&nbsp;<a href=\"http://www.ratbv.ro/route/23/tour/\">25</a>, &nbsp;<a href=\"http://www.ratbv.ro/route/38/tour/\">28</a>",
            "longitude": "25.570123",
            "name": "Vectra"
        },
        {
            "code": "AGRICULTORILOR",
            "latitude": "45.666624",
            "lines": "&nbsp;<a href=\"http://www.ratbv.ro/route/23/tour/\">25</a>, &nbsp;<a href=\"http://www.ratbv.ro/route/38/tour/\">28</a>",
            "longitude": "25.572483",
            "name": "Agricultorilor"
        },
        {
            "code": "LANII_POSTA_I",
            "latitude": "45.667863",
            "lines": "&nbsp;<a href=\"http://www.ratbv.ro/route/38/tour/\">28</a>, &nbsp;<a href=\"http://www.ratbv.ro/route/24/tour/\">29</a>",
            "longitude": "25.571041",
            "name": "Posta"
        },
        {
            "code": "CAMINE_IAR_I",
            "latitude": "45.670902",
            "lines": "&nbsp;<a href=\"http://www.ratbv.ro/route/38/tour/\">28</a>, &nbsp;<a href=\"http://www.ratbv.ro/route/24/tour/\">29</a>",
            "longitude": "25.565861",
            "name": "Camine IAR"
        }
    ]
}
