stop_id,stop_name,stop_lat,stop_lon
13_DECEMBRIE_D,13 Decembrie,45.670933,25.615235
13_DECEMBRIE_I,13 Decembrie,45.670533,25.616614
1DEC1918_D,1 Decembrie 1918,45.666362,25.599335
1DEC1918_I,1 Decembrie 1918,45.666505,25.598147
AGETAPS_D,Agetaps,45.689126,25.583009
AGRICULTORILOR,Agricultorilor,45.666624,25.572483
ARTERA_SUD_EST_D,Artera Sud-Est,45.63014,25.655322
ARTERA_SUD_EST_I,Artera Sud-Est,45.629645,25.654957
ATELIER_D,Atelier,45.64786,25.55635
ATELIER_I,Atelier,45.647849,25.55627
AUCHAN_CORESI_D,Auchan Coresi,45.673205,25.618197
AUCHAN_CORESI_I,Auchan Coresi,45.673445,25.618379
AURORA_17_D,Aurora,45.617662,25.651754
AURORA_17_I,Aurora,45.617306,25.651829
AURORA_D,Aurora,45.617966,25.648554
AURORA_I,Aurora,45.618549,25.649369
AUTOG3_D,Autogara 3,45.663297,25.629714
AUTOG3_I,Autogara 3,45.663423,25.630143
AUTOGARA2_D,Autogara 2,45.663102,25.583191
AUTOGARA2_I,Autogara 2,45.663571,25.582904
AVANTGARDEN,Avantgarden,45.664053,25.56341
AVICOLA_MAGURELE,Avicola Magurele,45.627554,25.522061
BACIULUI_D,Str. Baciului,45.712755,25.580168
BACIULUI_I,Str. Baciului,45.712761,25.580286
BACIULUI_TRIFAN,Baciului,45.715795,25.588896
BALCESCU,Balcescu,45.641597,25.592319
BARIERA_BARTOLOM,Bariera Bartolomeu,45.664354,25.577939
BARTOLO_NORD_CAP,Bartolomeu Nord,45.673634,25.562353
BARTOLO_NORD_D,Bartolomeu Nord,45.673574,25.562088
BAUMAX,Baumax,45.673229,25.589765
BENZINARIA_MOL,Mol,45.683998,25.583387
BENZINARIA_PETROM,Benzinaria Petrom,45.573156,25.613809
BERZEI_1,Berzei,45.6396,25.627088
BERZEI_2,Pompieri,45.637175,25.622402
BERZEI_NOUA,Berzei,45.639669,25.628075
BISERICA_NEAGRA,Biserica Neagra,45.64039,25.585597
BISERICA_TRAC,Biserica Tractorul,45.664778,25.608994
BISERICII_ROMANE,Bisericii Romane,45.653616,25.58704
BRANCOVEANU,Brancoveanu,45.639191,25.582977
BRANDUSE_GARA,Branduselor,45.654882,25.623926
BRANDUSE_GEME,Branduselor,45.65365,25.624087
BRINTEX_I,Brintex,45.657497,25.559867
BRONZULUI_I,Bronzului,45.668326,25.597292
BUC_BERZEI_D,Berzei,45.640238,25.627809
BUC_INFO_D,Liceul Informatica,45.644621,25.623194
BUC_INFO_I,Liceul Informatica,45.644591,25.623057
BUC_SOARE_D,Soarelui,45.636993,25.631218
CAL_FAGA_I,Bartolomeu Gara,45.663035,25.576314
CAM_COMERT,Camera de Comert,45.651039,25.608275
CAMINE_IAR_D,Camine IAR,45.671014,25.565537
CAMINE_IAR_I,Camine IAR,45.670902,25.565861
CAMPUS_GENIUS_D,Campus Genius,45.668607,25.548878
CAMPUS_GENIUS_I,Campus Genius,45.668878,25.548781
CAPRIOARA,Caprioara,45.65976,25.614576
CARAMIDARIEI,Caramidariei,45.658374,25.563297
CARAMIDARIEI_I,Caramidariei,45.65861,25.563485
CARFIL_D,Carfil,45.64918,25.647395
CARFIL_I,Carfil,45.649012,25.648042
CARIEREI,Carierei,45.657998,25.578487
CARPATIILOR_D,Carpatilor,45.641939,25.6156
CARPATIILOR_I,Carpatilor,45.641852,25.614594
CARREFOUR_D,Carrefour,45.631564,25.63716
CASE_D,Case,45.685924,25.536558
CASE_I,Case,45.686134,25.53632
CASTANILOR,Castanilor,45.649383,25.604064
CEC_D,CEC,45.654601,25.615245
CEC_I,Toamnei,45.654533,25.61538
CEFERISTILOR,Ceferistilor,45.660879,25.627222
CERNATULUI_D,Cernatului,45.649107,25.651633
CERNATULUI_I,Cernatului,45.648952,25.65228
CET,CET,45.661545,25.640486
CET_D,CET,45.662026,25.640105
CET_TIMIS_TRIAJ,CET,45.662064,25.640145
CET_UZINA2,CET,45.661395,25.639574
CIMITIRUL_CENTRAL_D,Cimitirul Central,45.672738,25.575189
CIMITIRUL_CENTRAL_I,Cimitirul Central,45.672761,25.575313
CINEPLEX_CORESI,Cineplex Coresi,45.671365,25.613689
COMETEI_D,Cometei,45.637091,25.636484
COMETEI_I,Cometei,45.638541,25.636253
COMPLEX_BARTOLO,Complex Bartolomeu,45.663582,25.578731
COMPLEX_D,Complexul Mare,45.645338,25.631476
COMPLEX_I,Complexul Mare,45.643887,25.632705
CONFOREST_D,Conforest,45.671014,25.579026
CONFOREST_I,Conforest,45.671423,25.579283
CORESI_1_D,Coresi 1,45.669041,25.629703
CORESI_1_I,Coresi 1,45.668853,25.629482
CORESI_2_D,Coresi 2,45.669929,25.622909
CORESI_2_I,Coresi 2,45.669883,25.621635
CORESI_D,Coresi,45.671974,25.611489
CORESI_I,Coresi,45.672541,25.611967
COSMESTI,Cosmesti,45.666521,25.579214
COSMESTI_D,Cosmesti,45.665822,25.579302
CRAITER,Craiter,45.656912,25.633389
DACIA,Dacia,45.658052,25.612757
DAMBUL_MORII_D,Dambul Morii,45.595486,25.637079
DAMBUL_MORII_I,Dambul Morii,45.595428,25.636511
DEPOZITE_ILF,Depozite ILF,45.656303,25.556495
DIMITRIE_ANGHEL_D,Dimitrie Anghel,45.669055,25.576051
DIMITRIE_ANGHEL_I,Dimitrie Anghel,45.66884,25.576236
DIVERSITAS_D,Diversitas,45.657645,25.643839
DIVERSITAS_I,Diversitas,45.657941,25.643522
DRAMATIC,Dramatic,45.645361,25.598176
DULGHERILOR_D,Dulgherilor,45.707359,25.552568
DULGHERILOR_I,Dulgherului,45.707116,25.552872
ELMAS,Elmas,45.687588,25.582859
ENERGOREP_D,Energo,45.653127,25.653642
ENERGOREP_I,Energo,45.653179,25.653784
FAB_VAR_CAPAT,F-ca de Var,45.645239,25.552445
FACU_17B_D,Facultativa,45.587613,25.627437
FACU_17B_I,Facultativa,45.587055,25.626235
FACULT_20_D,Facultativa,45.642844,25.565757
FACULT_20_I,Facultativa,45.642606,25.564392
FACULT2_20_D,Facultativa II,45.619161,25.543387
FACULT2_20_I,Facultativa II,45.619137,25.543358
FACULT2_44_D,Facultativa,45.634135,25.51851
FACULT2_44_I,Facultativa,45.634053,25.518392
FACULT_28_D,Facultativa,45.66108,25.561661
FACULT_28_I,Facultativa,45.661001,25.562221
FACULT_34_45,Facultativa,45.649297,25.65542
FACULT_44_D,Facultativa,45.633346,25.515742
FACULT_44_I,Facultativa,45.63331,25.515793
FACULTATIVA_14B_D,Facultativa,45.651968,25.562412
FACULTATIVA_14B_I,Facultativa,45.652025,25.562139
FACULTATIVA_14_D,Facultativa,45.655988,25.574968
FACULTATIVA_14_I,Facultativa,45.655418,25.574297
FACULTATIVA_18_40_D,Facultativa,45.70121,25.564244
FACULTATIVA_18_40_I,Facultativa,45.701273,25.56415
FACULTATIVA_18_D,Facultativa,45.691867,25.549374
FACULTATIVA_18_I,Facultativa,45.691805,25.549186
FACULTATIVA2_18_D,Facultativa II,45.690265,25.547429
FACULTATIVA2_18_I,Facultativa II,45.68998,25.546973
FACULTATIVA_26_1_D,Facultativa,45.714194,25.584197
FACULTATIVA_26_1_I,Facultativa,45.714377,25.584916
FACULTATIVA_26_2_D,Facultativa,45.712866,25.571178
FACULTATIVA_26_2_I,Facultativa,45.712774,25.570783
FACULTATIVA_26_3_D,Facultativa,45.706625,25.563308
FACULTATIVA_26_3_I,Facultativa,45.706561,25.563002
FACULTATIVA_NOUA,Facultativa,45.617748,25.631251
FACULT_AVANTGARDEN,Facultativa,45.66583,25.565183
FACULT_BELLE_VUE_D,Facultativa,45.644948,25.580179
FACULT_BELLE_VUE_I,Facultativa,45.645479,25.580235
FACULT_MTI_I,Facultativa (MTI),45.648592,25.531301
FAGET,Faget,45.660975,25.607835
FAGET_I,Faget,45.659765,25.608085
FAGURULUI_26_D,Str. Fagurului,45.714639,25.577357
FAGURULUI_26_I,Str. Fagurului,45.714686,25.577003
FAGURULUI_D,Fagurului,45.705329,25.5722
FAGURULUI_I,Fagurului,45.705445,25.572154
FANTANII_D,Fantanii,45.707661,25.575933
FANTANII_I,Fantanii,45.707695,25.575571
FARTEC,Fartec,45.666135,25.588831
FELDIOAREI_D,Feldioarei,45.708114,25.57909
FELDIOAREI_I,Feldioarei,45.70817,25.578921
FRAGILOR_D,Fragilor,45.633059,25.60556
FRAGILOR_I,Fragilor,45.632567,25.604732
FUNDATURII_CAPAT_D,Fundaturii cl,45.683119,25.543154
FUNDATURII_D,Fundaturii,45.685675,25.541437
FUNDATURII_I,Fundaturii,45.685755,25.541413
FUND_HARMAN_CET,Fnd. Harmanului,45.666591,25.636071
FUND_HARMAN_TRIAJ,Fnd. Harmanului,45.666548,25.636235
GARA,Gara Brasov,45.660703,25.613443
GARII_FAGET,Bd. Garii,45.660388,25.612207
GEMENII_CET_D,Gemenii,45.649576,25.629285
GEMENII_CET_I,Gemenii,45.649458,25.628491
GEMENII_D,Gemenii,45.648061,25.62859
GEMENII_I,Gemenii,45.648785,25.627496
GHEORGHE_DOJA_D,Gh. Doja,45.667826,25.577996
GHEORGHE_DOJA_I,Gh. Doja,45.667149,25.577773
HALTA_TIMIS_JOS_D,Halta Timisul de Jos,45.585186,25.624041
HALTA_TIMIS_JOS_I,Halta Timisul de Jos,45.584037,25.622952
HIDRO_A,Hidro A,45.651163,25.609808
HIDRO_B,Hidro B,45.651438,25.61384
HORNBACH,Hornbach,45.66098,25.550688
HOTEL_TRIFAN_D,Hotel Trifan,45.670752,25.590374
HOTEL_TRIFAN_I,Hotel Trifan,45.671044,25.590505
HUNIADE_D,Huniade,45.666426,25.58865
HUNIADE_I,Huniade,45.666448,25.588827
IANCU_JIANU_BART,Iancu Jianu,45.660418,25.600859
IANCU_JIANU_FAGET,Iancu Jianu,45.66023,25.602034
ICA_GHIMBAV_CAPAT,IAR Ghimbav,45.693795,25.529705
ICPC,ICPC,45.673177,25.542757
IGNIS_D,Ignis,45.649857,25.559295
IGNIS_I,Ignis,45.649797,25.559078
INDEPENDENTEI,Independentei,45.666562,25.595298
INFOSTAR_D,Infostar,45.655283,25.612229
INFOSTAR_I,Infostar,45.65503,25.612535
INTCEFERISTILOR,Int. Ceferistilor,45.656637,25.631455
IOAN_CLOPOTEL,Ioan Clopotel,45.652197,25.54287
IULIU_MANIU_D,Iuliu Maniu,45.649373,25.598171
IUS_D,IUS,45.65649,25.618281
IUS_I,IUS,45.656595,25.618989
IVECO,Iveco,45.682907,25.584347
IZVORULUI_26_D,Str. Izvorului,45.709257,25.569649
IZVORULUI_26_I,Str. Izvorului,45.709255,25.569043
LABIS_D,N. Labis,45.678575,25.613881
LABIS_I,N. Labis,45.679077,25.614235
LANII_POSTA_D,Posta,45.668429,25.570282
LANII_POSTA_I,Posta,45.667863,25.571041
LANURILOR_D,Lanurilor,45.663316,25.56713
LANURILOR_I,Lanurilor,45.662388,25.567731
LICEU_CFR_CET,Liceul CFR,45.67248,25.645292
LICEU_CFR_TRIAJ,Liceul CFR,45.672461,25.645424
LICEUL_SAGUNA,Liceul Saguna,45.638424,25.585066
LICEU_TRACT_D,Liceul Tractorul,45.668664,25.610219
LICEU_TRACT_I,Liceul Tractorul,45.669631,25.610864
LIVADA_POSTEI,Livada Postei,45.645656,25.588199
LUJERULUI,Lujerului,45.71448,25.550978
LUNGA_1D,Biserica Bartolomeu,45.66268,25.578204
LUNGA_1I,Astra,45.647232,25.589167
LUNGA_2D,Carierei,45.658262,25.580629
LUNGA_2I,Bisericii Romane,45.652433,25.585493
LUNGA_3D,Memorandului,45.655073,25.582801
LUNGA_3I,Memorandului,45.655088,25.58294
LUNGA_4D,Bisericii Romane,45.651779,25.585983
LUNGA_4I,Carierei,45.659107,25.580279
LUNGA_5D,Astra,45.647877,25.58881
MAGURELE,Magurele,45.635977,25.523705
MARASESTI_D,Marasesti,45.654449,25.572398
MARASESTI_I,Marasesti,45.654514,25.572242
MERILOR_D,Merilor,45.691103,25.565483
MERILOR_I,Merilor,45.69106,25.565668
MESOTA,Liceul Mesota,45.653813,25.609305
METABRAS_45_CET,Metabras,45.668694,25.63974
METABRAS_45_TRIAJ,Metabras,45.668606,25.63977
METABRAS_D,Metabras,45.676449,25.58818
METABRAS_I,Metabras,45.676638,25.588336
METRO,Metro,45.622209,25.646676
METROM_D,Metrom,45.635264,25.623459
METROM_I,Metrom,45.634745,25.624301
MIRCEA_BAT_D,Mircea cel Batran,45.658836,25.606663
MIRCEA_BAT_I,Mircea cel Batran,45.656995,25.606226
MOLNAR_JANOS,Molnar Janos,45.665477,25.568388
MONDOTRANS_D,Mondotrans,45.7062,25.580356
MONDOTRANS_I,Mondotrans,45.705687,25.580539
MORII,Morii,45.657788,25.584244
MORII_D,Morii,45.658054,25.587327
MORII_I,Morii,45.658326,25.587172
MUNCII_D,Muncii,45.639171,25.61071
MUNCII_I,Muncii,45.640022,25.611464
MUNICIPAL,Municipal,45.659914,25.569798
NEPTUN_D,Neptun,45.64174,25.635282
NEPTUN_I,Neptun,45.64086,25.635792
NICOPOLE,Nicopole,45.656119,25.585337
NOUA,Noua,45.620206,25.633947
OITELOR_D,Oitelor,45.692729,25.563316
OITELOR_I,Oitelor,45.692585,25.563622
OLIGOPOL_D,Oligopol,45.681991,25.581528
OLIGOPOL_I,Oligopol,45.682435,25.581743
ONIX_BART,Onix,45.653466,25.603927
ONIX_D,Onix,45.652366,25.604361
ONIX_TRACT,Onix,45.65398,25.605155
OPERA_BRASOV_D,Opera Brasov,45.655129,25.59156
OPERA_BRASOV_I,Opera Brasov,45.655718,25.590945
PANAIT_CERNA,Panait Cerna,45.650645,25.626066
PANSELELOR,Panselelor,45.627502,25.622434
PANTEX_D,Pantex,45.606622,25.653296
PANTEX_I,Pantex,45.606765,25.653339
PAPA_REALE_D,Papa Reale,45.665653,25.644077
PARA_REALE_I,Papa Reale,45.665327,25.643914
PARC_IND_METROM_D,Parc Ind. Metrom,45.630796,25.624719
PARC_IND_METROM_I,Parc Ind. Metrom,45.6307,25.624406
PATRIA,Patria,45.648652,25.605112
PAVILIOANE_D,Pavilioanele CFR,45.65978,25.632058
PIATA_DECEB_D,Piata Decebal,45.644142,25.618169
PIATA_DECEB_I,Piata Decebal,45.643139,25.617754
PIATA_TRACT_D,Piata Tractorul,45.665968,25.604892
PIATA_TRACT_I,Piata Tractorul,45.66622,25.603358
PIATA_UNIRII_D,Piata Unirii,45.636232,25.580783
PIATA_UNIRII_I,Piata Unirii,45.636209,25.579189
PLEVNEI_D,Plevnei,45.659529,25.59536
PLEVNEI_FAGET,Plevnei,45.660335,25.596358
PLEVNEI_I,Plevnei,45.66093,25.59452
PLUGARILOR_D,Plugarilor,45.695127,25.560832
PLUGARILOR_I,Plugarilor,45.695138,25.560921
POIANA_BRASOV,Poiana Brasov,45.594987,25.553336
POIANA_DARSTE_D,Poiana Darste,45.616471,25.645274
POIANA_DARSTE_I,Poiana Darste,45.616488,25.644957
POIANA_MICA_D,Poiana Mica,45.60808,25.55418
POIANA_MICA_I,Poiana Mica,45.608365,25.553867
POIENELOR_D,Poienelor,45.631967,25.628644
POIENELOR_D_53,Poienelor,45.627589,25.640023
POIENELOR_I,Poienelor,45.631826,25.629504
POIENELOR_I_53,Poienelor,45.627664,25.64043
POIENELOR_I_P,Poienelor,45.631826,25.629504
POIENELOR_NOUA,Poienelor,45.634685,25.633351
POLIGRAFIE_D,Poligrafie,45.64909,25.639544
POLIGRAFIE_I,Poligrafie,45.648937,25.640569
PRAKTIKER,Praktiker,45.630697,25.637694
PRIMARIE,Primarie,45.646566,25.592935
PRUNULUI_D,Prunului,45.624333,25.635452
PRUNULUI_I,Prunului,45.624198,25.635903
RAPID,Rapid,45.659143,25.61332
RASARITULUI_CAPAT,Rasaritul,45.653611,25.56614
RASARITULUI_I,Rasaritul,45.653309,25.56599
RATBV_D,RAT Brasov,45.669687,25.638461
RATBV_I,RAT Brasov,45.669569,25.638644
RAZBOIENEI,Academia Henri Coanda,45.662304,25.59315
RIAL,Rial,45.651425,25.595497
ROMAN,Roman,45.632837,25.632513
ROMRADIAT_D,Romradiatoare,45.649177,25.643294
ROMRADIAT_I,Romradiatoare,45.649068,25.643938
ROPLANT_D,Roplant,45.660845,25.555956
ROPLANT_I,Roplant,45.660783,25.55569
ROZMARIN,Rozmarinului,45.619047,25.637267
RULMENTUL_CAP,Rulmentul,45.682274,25.614838
SALA_SPORT,Sala Sporturilor,45.659001,25.62082
SANITAS,Sanitas,45.649295,25.600434
SATURN,Saturn,45.634593,25.635266
SATURN_DARSTE,Saturn,45.635062,25.635285
SC_GEN_20_D,Sc. Gen. 20,45.636526,25.608758
SC_GEN_20_I,Sc. Gen. 20,45.638042,25.609511
SC_GEN_25,Sc. Gen. 25,45.634116,25.605992
SC_GEN_9,Sc. Gen. 9,45.6149,25.631125
SCRIITORILOR,Scriitorilor,45.650487,25.620662
SELGROS_D,Selgros,45.624412,25.644708
SERVICE,Service,45.660315,25.566199
SERVICE_DEPOZITE,Service,45.659584,25.566596
SILNEF_D,Silnef,45.655778,25.648109
SILNEF_I,Silnef,45.655926,25.647934
SPITAL_MARZESCU,Spital Marzescu,45.651211,25.595996
SPITAL_TRACT_I,Spital Tractorul,45.665877,25.608776
SPIT_JUD_CETATE,Spitalul Judetean,45.647421,25.61924
SPIT_JUD_D,Judetean,45.648635,25.618754
SPIT_JUD_I,Judetean,45.646686,25.620838
STADION_TIN_CAPAT,Stadionul Tineretului,45.664589,25.583229
STADION_TIN_GRIV,Stadionul Tineretului,45.66481,25.583963
STADION_TIN_MUNIC,Stadionul Tineretului,45.665085,25.583556
STADIONULUI,Stadionului,45.663187,25.581313
STAR,Star,45.644783,25.598681
STATIE_41_D,Racordnorm,45.688847,25.567516
STATIE_41_I,Racordnorm,45.688732,25.567712
STATIE_EPURARE_D,Statie Epurare,45.680874,25.572357
STATIE_EPURARE_I,Statie Epurare,45.680825,25.572497
STATIE_PIATA_D,Targ Auto,45.664011,25.555079
STATIE_PIATA_I,Targ Auto,45.664124,25.555036
STRAND_NOUA_D,Strand Noua,45.61548,25.640599
STRAND_NOUA_I,Strand Noua,45.615544,25.639263
STUPINA_D,Pensiunea Stupina,45.686646,25.56923
STUPINA_I,Pensiunea Stupina,45.686428,25.569485
STUPINI_CENTRU,Stupini Centru,45.698597,25.557925
STUPINI_CENTRU_41_D,Stupini Centru,45.698014,25.558349
STUPINI_CENTRU_D,Stupini Centru,45.698014,25.557788
STUPINI_CENTRU_I,Stupini Centru,45.698426,25.55848
STUPINI_CENTRU_IZVO,Stupini Centru,45.698051,25.558421
STUPINI_IZVORUL,Stupini Izvorului,45.702283,25.55572
STUPINI_IZVORUL_D,Stupini Izvorului,45.702405,25.555881
STUPINI_IZVORUL_I,Izvorului spre Baciului,45.702289,25.556135
SURLASULUI_D,Surlasului,45.693671,25.552399
SURLASULUI_I,Surlasului,45.693799,25.552308
TEODOROIU_D,Ec. Teodoroiu,45.66538,25.583859
TEODOROIU_I,Ec. Teodoroiu,45.665399,25.584044
TIMIS_TRIAJ,Timis Triaj,45.666921,25.649375
TIPOGRAFIA_BRAS_D,Tipografia Bratsar,45.697849,25.582073
TIPOGRAFIA_BRAS_I,Tipografia Bratsar,45.699084,25.581558
TOAMNEI,Toamnei,45.652518,25.615621
TOAMNEI_ZIZIN,Toamnei,45.650686,25.618162
TOCILE,Tocile,45.63315,25.576598
TRACTORUL,Tractorul,45.666413,25.609683
TRAIAN_I,Traian,45.65017,25.623078
TRIAJ,Triaj,45.675382,25.647923
TUDOR_VLAD_I,Tudor Vladimirescu,45.664894,25.593917
UNITATEA_MIL_D,Unitate Militara,45.675555,25.580045
UNITATEA_MIL_I,Unitate Militara,45.67638,25.580391
UNIV_CORP_V_D,Universitate,45.655853,25.600022
UNIV_CORP_V_I,Universitate,45.656715,25.599198
VALEA_CETATII_CAP,Valea Cetatii,45.630667,25.601719
VECTRA,Vectra,45.664073,25.570123
VLAHUTA,Vlahuta,45.657715,25.62215
VLAHUTA_D,Vlahuta,45.657968,25.620771
VLAHUTA_I,Vlahuta,45.659107,25.622869
VULTURUL_D,Vulturului,45.638946,25.619779
VULTURUL_I,Vulturului,45.639834,25.619117
WARTE_D,Warte,45.646126,25.577084
WARTE_I,Warte,45.646332,25.576427
ZLATNA_BART,Zlatna,45.666772,25.574782
ZLATNA_D,Zlatna,45.666757,25.574541
