{
    "end_station": {
        "code": "AVANTGARDEN",
        "latitude": "45.664053",
        "lines": "&nbsp;<a href=\"http://www.ratbv.ro/route/22/tour/\">24</a>, &nbsp;<a href=\"http://www.ratbv.ro/route/23/tour/\">25</a>",
        "longitude": "25.56341",
        "name": "Avantgarden"
    },
    "number": "25",
    "start_station": {
        "code": "ROMAN",
        "latitude": "45.632837",
        "lines": "&nbsp;<a href=\"http://www.ratbv.ro/route/23/tour/\">25</a>, &nbsp;<a href=\"http://www.ratbv.ro/route/28/tour/\">33</a>, &nbsp;<a href=\"http://www.ratbv.ro/route/35/tour/\">5</a>, &nbsp;<a href=\"http://www.ratbv.ro/route/43/tour/\">52</a>",
        "longitude": "25.632513",
        "name": "Roman"
    },
    "waypoints": [
        {
            "code": "COMETEI_D",
            "latitude": "45.637091",
            "lines": "&nbsp;<a href=\"http://www.ratbv.ro/route/17/tour/\">17B</a>, &nbsp;<a href=\"http://www.ratbv.ro/route/19/tour/\">21</a>, &nbsp;<a href=\"http://www.ratbv.ro/route/20/tour/\">22</a>, &nbsp;<a href=\"http://www.ratbv.ro/route/37/tour/\">23</a>, &nbsp;<a href=\"http://www.ratbv.ro/route/23/tour/\">25</a>, &nbsp;<a href=\"http://www.ratbv.ro/route/33/tour/\">40</a>, &nbsp;<a href=\"http://www.ratbv.ro/route/43/tour/\">52</a>, &nbsp;<a href=\"http://www.ratbv.ro/route/6/tour/\">6</a>, &nbsp;<a href=\"http://www.ratbv.ro/route/8/tour/\">8</a>",
            "longitude": "25.636484",
            "name": "Cometei"
        },
        {
            "code": "NEPTUN_D",
            "latitude": "45.64174",
            "lines": "&nbsp;<a href=\"http://www.ratbv.ro/route/17/tour/\">17B</a>, &nbsp;<a href=\"http://www.ratbv.ro/route/19/tour/\">21</a>, &nbsp;<a href=\"http://www.ratbv.ro/route/20/tour/\">22</a>, &nbsp;<a href=\"http://www.ratbv.ro/route/37/tour/\">23</a>, &nbsp;<a href=\"http://www.ratbv.ro/route/23/tour/\">25</a>, &nbsp;<a href=\"http://www.ratbv.ro/route/33/tour/\">40</a>, &nbsp;<a href=\"http://www.ratbv.ro/route/43/tour/\">52</a>, &nbsp;<a href=\"http://www.ratbv.ro/route/6/tour/\">6</a>, &nbsp;<a href=\"http://www.ratbv.ro/route/8/tour/\">8</a>",
            "longitude": "25.635282",
            "name": "Neptun"
        },
        {
            "code": "COMPLEX_D",
            "latitude": "45.645338",
            "lines": "&nbsp;<a href=\"http://www.ratbv.ro/route/17/tour/\">17B</a>, &nbsp;<a href=\"http://www.ratbv.ro/route/19/tour/\">21</a>, &nbsp;<a href=\"http://www.ratbv.ro/route/20/tour/\">22</a>, &nbsp;<a href=\"http://www.ratbv.ro/route/37/tour/\">23</a>, &nbsp;<a href=\"http://www.ratbv.ro/route/23/tour/\">25</a>, &nbsp;<a href=\"http://www.ratbv.ro/route/33/tour/\">40</a>, &nbsp;<a href=\"http://www.ratbv.ro/route/43/tour/\">52</a>, &nbsp;<a href=\"http://www.ratbv.ro/route/6/tour/\">6</a>, &nbsp;<a href=\"http://www.ratbv.ro/route/8/tour/\">8</a>",
            "longitude": "25.631476",
            "name": "Complexul Mare"
        },
        {
            "code": "GEMENII_D",
            "latitude": "45.648061",
            "lines": "&nbsp;<a href=\"http://www.ratbv.ro/route/17/tour/\">17B</a>, &nbsp;<a href=\"http://www.ratbv.ro/route/19/tour/\">21</a>, &nbsp;<a href=\"http://www.ratbv.ro/route/20/tour/\">22</a>, &nbsp;<a href=\"http://www.ratbv.ro/route/37/tour/\">23</a>, &nbsp;<a href=\"http://www.ratbv.ro/route/23/tour/\">25</a>, &nbsp;<a href=\"http://www.ratbv.ro/route/33/tour/\">40</a>, &nbsp;<a href=\"http://www.ratbv.ro/route/43/tour/\">52</a>, &nbsp;<a href=\"http://www.ratbv.ro/route/6/tour/\">6</a>, &nbsp;<a href=\"http://www.ratbv.ro/route/8/tour/\">8</a>",
            "longitude": "25.62859",
            "name": "Gemenii"
        },
        {
            "code": "PANAIT_CERNA",
            "latitude": "45.650645",
            "lines": "&nbsp;<a href=\"http://www.ratbv.ro/route/17/tour/\">17B</a>, &nbsp;<a href=\"http://www.ratbv.ro/route/19/tour/\">21</a>, &nbsp;<a href=\"http://www.ratbv.ro/route/37/tour/\">23</a>, &nbsp;<a href=\"http://www.ratbv.ro/route/23/tour/\">25</a>, &nbsp;<a href=\"http://www.ratbv.ro/route/29/tour/\">34B</a>, &nbsp;<a href=\"http://www.ratbv.ro/route/33/tour/\">40</a>, &nbsp;<a href=\"http://www.ratbv.ro/route/8/tour/\">8</a>",
            "longitude": "25.626066",
            "name": "Panait Cerna"
        },
        {
            "code": "BRANDUSE_GARA",
            "latitude": "45.654882",
            "lines": "&nbsp;<a href=\"http://www.ratbv.ro/route/17/tour/\">17B</a>, &nbsp;<a href=\"http://www.ratbv.ro/route/19/tour/\">21</a>, &nbsp;<a href=\"http://www.ratbv.ro/route/37/tour/\">23</a>, &nbsp;<a href=\"http://www.ratbv.ro/route/23/tour/\">25</a>, &nbsp;<a href=\"http://www.ratbv.ro/route/29/tour/\">34B</a>, &nbsp;<a href=\"http://www.ratbv.ro/route/33/tour/\">40</a>, &nbsp;<a href=\"http://www.ratbv.ro/route/8/tour/\">8</a>",
            "longitude": "25.623926",
            "name": "Branduselor"
        },
        {
            "code": "SALA_SPORT",
            "latitude": "45.659001",
            "lines": "&nbsp;<a href=\"http://www.ratbv.ro/route/17/tour/\">17B</a>, &nbsp;<a href=\"http://www.ratbv.ro/route/37/tour/\">23</a>, &nbsp;<a href=\"http://www.ratbv.ro/route/21/tour/\">23B</a>, &nbsp;<a href=\"http://www.ratbv.ro/route/23/tour/\">25</a>, &nbsp;<a href=\"http://www.ratbv.ro/route/29/tour/\">34B</a>, &nbsp;<a href=\"http://www.ratbv.ro/route/32/tour/\">37</a>, &nbsp;<a href=\"http://www.ratbv.ro/route/33/tour/\">40</a>, &nbsp;<a href=\"http://www.ratbv.ro/route/8/tour/\">8</a>",
            "longitude": "25.62082",
            "name": "Sala Sporturilor"
        },
        {
            "code": "GARII_FAGET",
            "latitude": "45.660388",
            "lines": "&nbsp;<a href=\"http://www.ratbv.ro/route/37/tour/\">23</a>, &nbsp;<a href=\"http://www.ratbv.ro/route/21/tour/\">23B</a>, &nbsp;<a href=\"http://www.ratbv.ro/route/23/tour/\">25</a>, &nbsp;<a href=\"http://www.ratbv.ro/route/24/tour/\">29</a>, &nbsp;<a href=\"http://www.ratbv.ro/route/33/tour/\">40</a>, &nbsp;<a href=\"http://www.ratbv.ro/route/8/tour/\">8</a>",
            "longitude": "25.612207",
            "name": "Bd. Garii"
        },
        {
            "code": "IANCU_JIANU_BART",
            "latitude": "45.660418",
            "lines": "&nbsp;<a href=\"http://www.ratbv.ro/route/37/tour/\">23</a>, &nbsp;<a href=\"http://www.ratbv.ro/route/21/tour/\">23B</a>, &nbsp;<a href=\"http://www.ratbv.ro/route/23/tour/\">25</a>, &nbsp;<a href=\"http://www.ratbv.ro/route/33/tour/\">40</a>",
            "longitude": "25.600859",
            "name": "Iancu Jianu"
        },
        {
            "code": "PLEVNEI_I",
            "latitude": "45.66093",
            "lines": "&nbsp;<a href=\"http://www.ratbv.ro/route/15/tour/\">16</a>, &nbsp;<a href=\"http://www.ratbv.ro/route/37/tour/\">23</a>, &nbsp;<a href=\"http://www.ratbv.ro/route/21/tour/\">23B</a>, &nbsp;<a href=\"http://www.ratbv.ro/route/23/tour/\">25</a>, &nbsp;<a href=\"http://www.ratbv.ro/route/33/tour/\">40</a>",
            "longitude": "25.59452",
            "name": "Plevnei"
        },
        {
            "code": "TUDOR_VLAD_I",
            "latitude": "45.664894",
            "lines": "&nbsp;<a href=\"http://www.ratbv.ro/route/15/tour/\">16</a>, &nbsp;<a href=\"http://www.ratbv.ro/route/37/tour/\">23</a>, &nbsp;<a href=\"http://www.ratbv.ro/route/21/tour/\">23B</a>, &nbsp;<a href=\"http://www.ratbv.ro/route/23/tour/\">25</a>",
            "longitude": "25.593917",
            "name": "Tudor Vladimirescu"
        },
        {
            "code": "STADION_TIN_MUNIC",
            "latitude": "45.665085",
            "lines": "&nbsp;<a href=\"http://www.ratbv.ro/route/15/tour/\">16</a>, &nbsp;<a href=\"http://www.ratbv.ro/route/37/tour/\">23</a>, &nbsp;<a href=\"http://www.ratbv.ro/route/21/tour/\">23B</a>, &nbsp;<a href=\"http://www.ratbv.ro/route/23/tour/\">25</a>",
            "longitude": "25.583556",
            "name": "Stadionul Tineretului"
        },
        {
            "code": "COSMESTI",
            "latitude": "45.666521",
            "lines": "&nbsp;<a href=\"http://www.ratbv.ro/route/23/tour/\">25</a>, &nbsp;<a href=\"http://www.ratbv.ro/route/24/tour/\">29</a>, &nbsp;<a href=\"http://www.ratbv.ro/route/41/tour/\">41</a>",
            "longitude": "25.579214",
            "name": "Cosmesti"
        },
        {
            "code": "ZLATNA_BART",
            "latitude": "45.666772",
            "lines": "&nbsp;<a href=\"http://www.ratbv.ro/route/23/tour/\">25</a>, &nbsp;<a href=\"http://www.ratbv.ro/route/24/tour/\">29</a>",
            "longitude": "25.574782",
            "name": "Zlatna"
        },
        {
            "code": "MOLNAR_JANOS",
            "latitude": "45.665477",
            "lines": "&nbsp;<a href=\"http://www.ratbv.ro/route/23/tour/\">25</a>, &nbsp;<a href=\"http://www.ratbv.ro/route/38/tour/\">28</a>",
            "longitude": "25.568388",
            "name": "Molnar Janos"
        },
        {
            "code": "FACULT_AVANTGARDEN",
            "latitude": "45.66583",
            "lines": "&nbsp;<a href=\"http://www.ratbv.ro/route/22/tour/\">24</a>, &nbsp;<a href=\"http://www.ratbv.ro/route/23/tour/\">25</a>",
            "longitude": "25.565183",
            "name": "Facultativa"
        }
    ]
}
