{
    "end_station": {
        "code": "TRIAJ",
        "latitude": "45.675382",
        "lines": "&nbsp;<a href=\"http://www.ratbv.ro/route/1/tour/\">1</a>, &nbsp;<a href=\"http://www.ratbv.ro/route/10/tour/\">10</a>, &nbsp;<a href=\"http://www.ratbv.ro/route/14/tour/\">15</a>, &nbsp;<a href=\"http://www.ratbv.ro/route/48/tour/\">19</a>, &nbsp;<a href=\"http://www.ratbv.ro/route/19/tour/\">21</a>, &nbsp;<a href=\"http://www.ratbv.ro/route/21/tour/\">23B</a>, &nbsp;<a href=\"http://www.ratbv.ro/route/29/tour/\">34B</a>",
        "longitude": "25.647923",
        "name": "Triaj"
    },
    "number": "23B",
    "start_station": {
        "code": "MUNICIPAL",
        "latitude": "45.659914",
        "lines": "&nbsp;<a href=\"http://www.ratbv.ro/route/15/tour/\">16</a>, &nbsp;<a href=\"http://www.ratbv.ro/route/37/tour/\">23</a>, &nbsp;<a href=\"http://www.ratbv.ro/route/21/tour/\">23B</a>, &nbsp;<a href=\"http://www.ratbv.ro/route/22/tour/\">24</a>, &nbsp;<a href=\"http://www.ratbv.ro/route/38/tour/\">28</a>, &nbsp;<a href=\"http://www.ratbv.ro/route/35/tour/\">5</a>, &nbsp;<a href=\"http://www.ratbv.ro/route/5/tour/\">5M</a>, &nbsp;<a href=\"http://www.ratbv.ro/route/9/tour/\">9</a>",
        "longitude": "25.569798",
        "name": "Municipal"
    },
    "waypoints": [
        {
            "code": "COMPLEX_BARTOLO",
            "latitude": "45.663582",
            "lines": "&nbsp;<a href=\"http://www.ratbv.ro/route/15/tour/\">16</a>, &nbsp;<a href=\"http://www.ratbv.ro/route/37/tour/\">23</a>, &nbsp;<a href=\"http://www.ratbv.ro/route/21/tour/\">23B</a>, &nbsp;<a href=\"http://www.ratbv.ro/route/23/tour/\">25</a>, &nbsp;<a href=\"http://www.ratbv.ro/route/9/tour/\">9</a>",
            "longitude": "25.578731",
            "name": "Complex Bartolomeu"
        },
        {
            "code": "STADION_TIN_MUNIC",
            "latitude": "45.665085",
            "lines": "&nbsp;<a href=\"http://www.ratbv.ro/route/15/tour/\">16</a>, &nbsp;<a href=\"http://www.ratbv.ro/route/37/tour/\">23</a>, &nbsp;<a href=\"http://www.ratbv.ro/route/21/tour/\">23B</a>, &nbsp;<a href=\"http://www.ratbv.ro/route/23/tour/\">25</a>",
            "longitude": "25.583556",
            "name": "Stadionul Tineretului"
        },
        {
            "code": "FARTEC",
            "latitude": "45.666135",
            "lines": "&nbsp;<a href=\"http://www.ratbv.ro/route/15/tour/\">16</a>, &nbsp;<a href=\"http://www.ratbv.ro/route/37/tour/\">23</a>, &nbsp;<a href=\"http://www.ratbv.ro/route/21/tour/\">23B</a>, &nbsp;<a href=\"http://www.ratbv.ro/route/23/tour/\">25</a>",
            "longitude": "25.588831",
            "name": "Fartec"
        },
        {
            "code": "RAZBOIENEI",
            "latitude": "45.662304",
            "lines": "&nbsp;<a href=\"http://www.ratbv.ro/route/15/tour/\">16</a>, &nbsp;<a href=\"http://www.ratbv.ro/route/37/tour/\">23</a>, &nbsp;<a href=\"http://www.ratbv.ro/route/21/tour/\">23B</a>, &nbsp;<a href=\"http://www.ratbv.ro/route/23/tour/\">25</a>",
            "longitude": "25.59315",
            "name": "Academia Henri Coanda"
        },
        {
            "code": "PLEVNEI_I",
            "latitude": "45.66093",
            "lines": "&nbsp;<a href=\"http://www.ratbv.ro/route/15/tour/\">16</a>, &nbsp;<a href=\"http://www.ratbv.ro/route/37/tour/\">23</a>, &nbsp;<a href=\"http://www.ratbv.ro/route/21/tour/\">23B</a>, &nbsp;<a href=\"http://www.ratbv.ro/route/23/tour/\">25</a>, &nbsp;<a href=\"http://www.ratbv.ro/route/33/tour/\">40</a>",
            "longitude": "25.59452",
            "name": "Plevnei"
        },
        {
            "code": "IANCU_JIANU_FAGET",
            "latitude": "45.66023",
            "lines": "&nbsp;<a href=\"http://www.ratbv.ro/route/37/tour/\">23</a>, &nbsp;<a href=\"http://www.ratbv.ro/route/21/tour/\">23B</a>, &nbsp;<a href=\"http://www.ratbv.ro/route/23/tour/\">25</a>, &nbsp;<a href=\"http://www.ratbv.ro/route/33/tour/\">40</a>",
            "longitude": "25.602034",
            "name": "Iancu Jianu"
        },
        {
            "code": "FAGET_I",
            "latitude": "45.659765",
            "lines": "&nbsp;<a href=\"http://www.ratbv.ro/route/37/tour/\">23</a>, &nbsp;<a href=\"http://www.ratbv.ro/route/21/tour/\">23B</a>, &nbsp;<a href=\"http://www.ratbv.ro/route/23/tour/\">25</a>, &nbsp;<a href=\"http://www.ratbv.ro/route/24/tour/\">29</a>, &nbsp;<a href=\"http://www.ratbv.ro/route/33/tour/\">40</a>, &nbsp;<a href=\"http://www.ratbv.ro/route/34/tour/\">51</a>, &nbsp;<a href=\"http://www.ratbv.ro/route/8/tour/\">8</a>",
            "longitude": "25.608085",
            "name": "Faget"
        },
        {
            "code": "CAPRIOARA",
            "latitude": "45.65976",
            "lines": "&nbsp;<a href=\"http://www.ratbv.ro/route/17/tour/\">17B</a>, &nbsp;<a href=\"http://www.ratbv.ro/route/37/tour/\">23</a>, &nbsp;<a href=\"http://www.ratbv.ro/route/21/tour/\">23B</a>, &nbsp;<a href=\"http://www.ratbv.ro/route/23/tour/\">25</a>, &nbsp;<a href=\"http://www.ratbv.ro/route/29/tour/\">34B</a>, &nbsp;<a href=\"http://www.ratbv.ro/route/32/tour/\">37</a>, &nbsp;<a href=\"http://www.ratbv.ro/route/33/tour/\">40</a>, &nbsp;<a href=\"http://www.ratbv.ro/route/8/tour/\">8</a>",
            "longitude": "25.614576",
            "name": "Caprioara"
        },
        {
            "code": "VLAHUTA",
            "latitude": "45.657715",
            "lines": "&nbsp;<a href=\"http://www.ratbv.ro/route/17/tour/\">17B</a>, &nbsp;<a href=\"http://www.ratbv.ro/route/19/tour/\">21</a>, &nbsp;<a href=\"http://www.ratbv.ro/route/37/tour/\">23</a>, &nbsp;<a href=\"http://www.ratbv.ro/route/21/tour/\">23B</a>, &nbsp;<a href=\"http://www.ratbv.ro/route/23/tour/\">25</a>, &nbsp;<a href=\"http://www.ratbv.ro/route/29/tour/\">34B</a>, &nbsp;<a href=\"http://www.ratbv.ro/route/33/tour/\">40</a>, &nbsp;<a href=\"http://www.ratbv.ro/route/8/tour/\">8</a>",
            "longitude": "25.62215",
            "name": "Vlahuta"
        },
        {
            "code": "AUTOG3_I",
            "latitude": "45.663423",
            "lines": "&nbsp;<a href=\"http://www.ratbv.ro/route/1/tour/\">1</a>, &nbsp;<a href=\"http://www.ratbv.ro/route/10/tour/\">10</a>, &nbsp;<a href=\"http://www.ratbv.ro/route/19/tour/\">21</a>, &nbsp;<a href=\"http://www.ratbv.ro/route/21/tour/\">23B</a>",
            "longitude": "25.630143",
            "name": "Autogara 3"
        },
        {
            "code": "RATBV_I",
            "latitude": "45.669569",
            "lines": "&nbsp;<a href=\"http://www.ratbv.ro/route/1/tour/\">1</a>, &nbsp;<a href=\"http://www.ratbv.ro/route/10/tour/\">10</a>, &nbsp;<a href=\"http://www.ratbv.ro/route/14/tour/\">15</a>, &nbsp;<a href=\"http://www.ratbv.ro/route/19/tour/\">21</a>, &nbsp;<a href=\"http://www.ratbv.ro/route/21/tour/\">23B</a>",
            "longitude": "25.638644",
            "name": "RAT Brasov"
        }
    ]
}
