{
    "end_station": {
        "code": "LIVADA_POSTEI",
        "latitude": "45.645656",
        "lines": "&nbsp;<a href=\"http://www.ratbv.ro/route/1/tour/\">1</a>, &nbsp;<a href=\"http://www.ratbv.ro/route/13/tour/\">14</a>, &nbsp;<a href=\"http://www.ratbv.ro/route/15/tour/\">16</a>, &nbsp;<a href=\"http://www.ratbv.ro/route/16/tour/\">17</a>, &nbsp;<a href=\"http://www.ratbv.ro/route/2/tour/\">2</a>, &nbsp;<a href=\"http://www.ratbv.ro/route/18/tour/\">20</a>, &nbsp;<a href=\"http://www.ratbv.ro/route/22/tour/\">24</a>, &nbsp;<a href=\"http://www.ratbv.ro/route/38/tour/\">28</a>, &nbsp;<a href=\"http://www.ratbv.ro/route/26/tour/\">31</a>, &nbsp;<a href=\"http://www.ratbv.ro/route/39/tour/\">34</a>, &nbsp;<a href=\"http://www.ratbv.ro/route/29/tour/\">34B</a>, &nbsp;<a href=\"http://www.ratbv.ro/route/31/tour/\">36</a>, &nbsp;<a href=\"http://www.ratbv.ro/route/32/tour/\">37</a>, &nbsp;<a href=\"http://www.ratbv.ro/route/4/tour/\">4</a>, &nbsp;<a href=\"http://www.ratbv.ro/route/41/tour/\">41</a>, &nbsp;<a href=\"http://www.ratbv.ro/route/44/tour/\">50</a>, &nbsp;<a href=\"http://www.ratbv.ro/route/6/tour/\">6</a>",
        "longitude": "25.588199",
        "name": "Livada Postei"
    },
    "number": "6",
    "start_station": {
        "code": "SATURN",
        "latitude": "45.634593",
        "lines": "&nbsp;<a href=\"http://www.ratbv.ro/route/17/tour/\">17B</a>, &nbsp;<a href=\"http://www.ratbv.ro/route/19/tour/\">21</a>, &nbsp;<a href=\"http://www.ratbv.ro/route/20/tour/\">22</a>, &nbsp;<a href=\"http://www.ratbv.ro/route/37/tour/\">23</a>, &nbsp;<a href=\"http://www.ratbv.ro/route/23/tour/\">25</a>, &nbsp;<a href=\"http://www.ratbv.ro/route/33/tour/\">40</a>, &nbsp;<a href=\"http://www.ratbv.ro/route/43/tour/\">52</a>, &nbsp;<a href=\"http://www.ratbv.ro/route/6/tour/\">6</a>, &nbsp;<a href=\"http://www.ratbv.ro/route/8/tour/\">8</a>",
        "longitude": "25.635266",
        "name": "Saturn"
    },
    "waypoints": [
        {
            "code": "COMETEI_D",
            "latitude": "45.637091",
            "lines": "&nbsp;<a href=\"http://www.ratbv.ro/route/17/tour/\">17B</a>, &nbsp;<a href=\"http://www.ratbv.ro/route/19/tour/\">21</a>, &nbsp;<a href=\"http://www.ratbv.ro/route/20/tour/\">22</a>, &nbsp;<a href=\"http://www.ratbv.ro/route/37/tour/\">23</a>, &nbsp;<a href=\"http://www.ratbv.ro/route/23/tour/\">25</a>, &nbsp;<a href=\"http://www.ratbv.ro/route/33/tour/\">40</a>, &nbsp;<a href=\"http://www.ratbv.ro/route/43/tour/\">52</a>, &nbsp;<a href=\"http://www.ratbv.ro/route/6/tour/\">6</a>, &nbsp;<a href=\"http://www.ratbv.ro/route/8/tour/\">8</a>",
            "longitude": "25.636484",
            "name": "Cometei"
        },
        {
            "code": "NEPTUN_D",
            "latitude": "45.64174",
            "lines": "&nbsp;<a href=\"http://www.ratbv.ro/route/17/tour/\">17B</a>, &nbsp;<a href=\"http://www.ratbv.ro/route/19/tour/\">21</a>, &nbsp;<a href=\"http://www.ratbv.ro/route/20/tour/\">22</a>, &nbsp;<a href=\"http://www.ratbv.ro/route/37/tour/\">23</a>, &nbsp;<a href=\"http://www.ratbv.ro/route/23/tour/\">25</a>, &nbsp;<a href=\"http://www.ratbv.ro/route/33/tour/\">40</a>, &nbsp;<a href=\"http://www.ratbv.ro/route/43/tour/\">52</a>, &nbsp;<a href=\"http://www.ratbv.ro/route/6/tour/\">6</a>, &nbsp;<a href=\"http://www.ratbv.ro/route/8/tour/\">8</a>",
            "longitude": "25.635282",
            "name": "Neptun"
        },
        {
            "code": "COMPLEX_D",
            "latitude": "45.645338",
            "lines": "&nbsp;<a href=\"http://www.ratbv.ro/route/17/tour/\">17B</a>, &nbsp;<a href=\"http://www.ratbv.ro/route/19/tour/\">21</a>, &nbsp;<a href=\"http://www.ratbv.ro/route/20/tour/\">22</a>, &nbsp;<a href=\"http://www.ratbv.ro/route/37/tour/\">23</a>, &nbsp;<a href=\"http://www.ratbv.ro/route/23/tour/\">25</a>, &nbsp;<a href=\"http://www.ratbv.ro/route/33/tour/\">40</a>, &nbsp;<a href=\"http://www.ratbv.ro/route/43/tour/\">52</a>, &nbsp;<a href=\"http://www.ratbv.ro/route/6/tour/\">6</a>, &nbsp;<a href=\"http://www.ratbv.ro/route/8/tour/\">8</a>",
            "longitude": "25.631476",
            "name": "Complexul Mare"
        },
        {
            "code": "GEMENII_D",
            "latitude": "45.648061",
            "lines": "&nbsp;<a href=\"http://www.ratbv.ro/route/17/tour/\">17B</a>, &nbsp;<a href=\"http://www.ratbv.ro/route/19/tour/\">21</a>, &nbsp;<a href=\"http://www.ratbv.ro/route/20/tour/\">22</a>, &nbsp;<a href=\"http://www.ratbv.ro/route/37/tour/\">23</a>, &nbsp;<a href=\"http://www.ratbv.ro/route/23/tour/\">25</a>, &nbsp;<a href=\"http://www.ratbv.ro/route/33/tour/\">40</a>, &nbsp;<a href=\"http://www.ratbv.ro/route/43/tour/\">52</a>, &nbsp;<a href=\"http://www.ratbv.ro/route/6/tour/\">6</a>, &nbsp;<a href=\"http://www.ratbv.ro/route/8/tour/\">8</a>",
            "longitude": "25.62859",
            "name": "Gemenii"
        },
        {
            "code": "SCRIITORILOR",
            "latitude": "45.650487",
            "lines": "&nbsp;<a href=\"http://www.ratbv.ro/route/20/tour/\">22</a>, &nbsp;<a href=\"http://www.ratbv.ro/route/39/tour/\">34</a>, &nbsp;<a href=\"http://www.ratbv.ro/route/43/tour/\">52</a>, &nbsp;<a href=\"http://www.ratbv.ro/route/6/tour/\">6</a>",
            "longitude": "25.620662",
            "name": "Scriitorilor"
        },
        {
            "code": "MESOTA",
            "latitude": "45.653813",
            "lines": "&nbsp;<a href=\"http://www.ratbv.ro/route/1/tour/\">1</a>, &nbsp;<a href=\"http://www.ratbv.ro/route/10/tour/\">10</a>, &nbsp;<a href=\"http://www.ratbv.ro/route/16/tour/\">17</a>, &nbsp;<a href=\"http://www.ratbv.ro/route/20/tour/\">22</a>, &nbsp;<a href=\"http://www.ratbv.ro/route/26/tour/\">31</a>, &nbsp;<a href=\"http://www.ratbv.ro/route/27/tour/\">32</a>, &nbsp;<a href=\"http://www.ratbv.ro/route/39/tour/\">34</a>, &nbsp;<a href=\"http://www.ratbv.ro/route/29/tour/\">34B</a>, &nbsp;<a href=\"http://www.ratbv.ro/route/30/tour/\">35</a>, &nbsp;<a href=\"http://www.ratbv.ro/route/32/tour/\">37</a>, &nbsp;<a href=\"http://www.ratbv.ro/route/4/tour/\">4</a>, &nbsp;<a href=\"http://www.ratbv.ro/route/43/tour/\">52</a>, &nbsp;<a href=\"http://www.ratbv.ro/route/6/tour/\">6</a>",
            "longitude": "25.609305",
            "name": "Liceul Mesota"
        },
        {
            "code": "ONIX_D",
            "latitude": "45.652366",
            "lines": "&nbsp;<a href=\"http://www.ratbv.ro/route/15/tour/\">16</a>, &nbsp;<a href=\"http://www.ratbv.ro/route/2/tour/\">2</a>, &nbsp;<a href=\"http://www.ratbv.ro/route/31/tour/\">36</a>, &nbsp;<a href=\"http://www.ratbv.ro/route/32/tour/\">37</a>, &nbsp;<a href=\"http://www.ratbv.ro/route/34/tour/\">51</a>, &nbsp;<a href=\"http://www.ratbv.ro/route/43/tour/\">52</a>, &nbsp;<a href=\"http://www.ratbv.ro/route/6/tour/\">6</a>",
            "longitude": "25.604361",
            "name": "Onix"
        },
        {
            "code": "SANITAS",
            "latitude": "45.649295",
            "lines": "&nbsp;<a href=\"http://www.ratbv.ro/route/1/tour/\">1</a>, &nbsp;<a href=\"http://www.ratbv.ro/route/15/tour/\">16</a>, &nbsp;<a href=\"http://www.ratbv.ro/route/16/tour/\">17</a>, &nbsp;<a href=\"http://www.ratbv.ro/route/2/tour/\">2</a>, &nbsp;<a href=\"http://www.ratbv.ro/route/20/tour/\">22</a>, &nbsp;<a href=\"http://www.ratbv.ro/route/26/tour/\">31</a>, &nbsp;<a href=\"http://www.ratbv.ro/route/39/tour/\">34</a>, &nbsp;<a href=\"http://www.ratbv.ro/route/29/tour/\">34B</a>, &nbsp;<a href=\"http://www.ratbv.ro/route/31/tour/\">36</a>, &nbsp;<a href=\"http://www.ratbv.ro/route/32/tour/\">37</a>, &nbsp;<a href=\"http://www.ratbv.ro/route/4/tour/\">4</a>, &nbsp;<a href=\"http://www.ratbv.ro/route/35/tour/\">5</a>, &nbsp;<a href=\"http://www.ratbv.ro/route/44/tour/\">50</a>, &nbsp;<a href=\"http://www.ratbv.ro/route/34/tour/\">51</a>, &nbsp;<a href=\"http://www.ratbv.ro/route/43/tour/\">52</a>, &nbsp;<a href=\"http://www.ratbv.ro/route/6/tour/\">6</a>",
            "longitude": "25.600434",
            "name": "Sanitas"
        },
        {
            "code": "PRIMARIE",
            "latitude": "45.646566",
            "lines": "&nbsp;<a href=\"http://www.ratbv.ro/route/1/tour/\">1</a>, &nbsp;<a href=\"http://www.ratbv.ro/route/15/tour/\">16</a>, &nbsp;<a href=\"http://www.ratbv.ro/route/16/tour/\">17</a>, &nbsp;<a href=\"http://www.ratbv.ro/route/2/tour/\">2</a>, &nbsp;<a href=\"http://www.ratbv.ro/route/26/tour/\">31</a>, &nbsp;<a href=\"http://www.ratbv.ro/route/39/tour/\">34</a>, &nbsp;<a href=\"http://www.ratbv.ro/route/29/tour/\">34B</a>, &nbsp;<a href=\"http://www.ratbv.ro/route/31/tour/\">36</a>, &nbsp;<a href=\"http://www.ratbv.ro/route/32/tour/\">37</a>, &nbsp;<a href=\"http://www.ratbv.ro/route/4/tour/\">4</a>, &nbsp;<a href=\"http://www.ratbv.ro/route/35/tour/\">5</a>, &nbsp;<a href=\"http://www.ratbv.ro/route/44/tour/\">50</a>, &nbsp;<a href=\"http://www.ratbv.ro/route/34/tour/\">51</a>, &nbsp;<a href=\"http://www.ratbv.ro/route/43/tour/\">52</a>, &nbsp;<a href=\"http://www.ratbv.ro/route/6/tour/\">6</a>",
            "longitude": "25.592935",
            "name": "Primarie"
        }
    ]
}
