{
    "end_station": {
        "code": "RULMENTUL_CAP",
        "latitude": "45.682274",
        "lines": "&nbsp;<a href=\"http://www.ratbv.ro/route/2/tour/\">2</a>, &nbsp;<a href=\"http://www.ratbv.ro/route/8/tour/\">8</a>, &nbsp;<a href=\"http://www.ratbv.ro/route/9/tour/\">9</a>",
        "longitude": "25.614838",
        "name": "Rulmentul"
    },
    "number": "9",
    "start_station": {
        "code": "MUNICIPAL",
        "latitude": "45.659914",
        "lines": "&nbsp;<a href=\"http://www.ratbv.ro/route/15/tour/\">16</a>, &nbsp;<a href=\"http://www.ratbv.ro/route/37/tour/\">23</a>, &nbsp;<a href=\"http://www.ratbv.ro/route/21/tour/\">23B</a>, &nbsp;<a href=\"http://www.ratbv.ro/route/22/tour/\">24</a>, &nbsp;<a href=\"http://www.ratbv.ro/route/38/tour/\">28</a>, &nbsp;<a href=\"http://www.ratbv.ro/route/35/tour/\">5</a>, &nbsp;<a href=\"http://www.ratbv.ro/route/5/tour/\">5M</a>, &nbsp;<a href=\"http://www.ratbv.ro/route/9/tour/\">9</a>",
        "longitude": "25.569798",
        "name": "Municipal"
    },
    "waypoints": [
        {
            "code": "COMPLEX_BARTOLO",
            "latitude": "45.663582",
            "lines": "&nbsp;<a href=\"http://www.ratbv.ro/route/15/tour/\">16</a>, &nbsp;<a href=\"http://www.ratbv.ro/route/37/tour/\">23</a>, &nbsp;<a href=\"http://www.ratbv.ro/route/21/tour/\">23B</a>, &nbsp;<a href=\"http://www.ratbv.ro/route/23/tour/\">25</a>, &nbsp;<a href=\"http://www.ratbv.ro/route/9/tour/\">9</a>",
            "longitude": "25.578731",
            "name": "Complex Bartolomeu"
        },
        {
            "code": "TEODOROIU_I",
            "latitude": "45.665399",
            "lines": "&nbsp;<a href=\"http://www.ratbv.ro/route/24/tour/\">29</a>, &nbsp;<a href=\"http://www.ratbv.ro/route/9/tour/\">9</a>",
            "longitude": "25.584044",
            "name": "Ec. Teodoroiu"
        },
        {
            "code": "HUNIADE_I",
            "latitude": "45.666448",
            "lines": "&nbsp;<a href=\"http://www.ratbv.ro/route/24/tour/\">29</a>, &nbsp;<a href=\"http://www.ratbv.ro/route/9/tour/\">9</a>",
            "longitude": "25.588827",
            "name": "Huniade"
        },
        {
            "code": "1DEC1918_D",
            "latitude": "45.666362",
            "lines": "&nbsp;<a href=\"http://www.ratbv.ro/route/14/tour/\">15</a>, &nbsp;<a href=\"http://www.ratbv.ro/route/24/tour/\">29</a>, &nbsp;<a href=\"http://www.ratbv.ro/route/31/tour/\">36</a>, &nbsp;<a href=\"http://www.ratbv.ro/route/9/tour/\">9</a>",
            "longitude": "25.599335",
            "name": "1 Decembrie 1918"
        },
        {
            "code": "PIATA_TRACT_D",
            "latitude": "45.665968",
            "lines": "&nbsp;<a href=\"http://www.ratbv.ro/route/14/tour/\">15</a>, &nbsp;<a href=\"http://www.ratbv.ro/route/24/tour/\">29</a>, &nbsp;<a href=\"http://www.ratbv.ro/route/31/tour/\">36</a>, &nbsp;<a href=\"http://www.ratbv.ro/route/9/tour/\">9</a>",
            "longitude": "25.604892",
            "name": "Piata Tractorul"
        },
        {
            "code": "TRACTORUL",
            "latitude": "45.666413",
            "lines": "&nbsp;<a href=\"http://www.ratbv.ro/route/14/tour/\">15</a>, &nbsp;<a href=\"http://www.ratbv.ro/route/2/tour/\">2</a>, &nbsp;<a href=\"http://www.ratbv.ro/route/8/tour/\">8</a>, &nbsp;<a href=\"http://www.ratbv.ro/route/9/tour/\">9</a>",
            "longitude": "25.609683",
            "name": "Tractorul"
        },
        {
            "code": "LICEU_TRACT_I",
            "latitude": "45.669631",
            "lines": "&nbsp;<a href=\"http://www.ratbv.ro/route/14/tour/\">15</a>, &nbsp;<a href=\"http://www.ratbv.ro/route/2/tour/\">2</a>, &nbsp;<a href=\"http://www.ratbv.ro/route/8/tour/\">8</a>, &nbsp;<a href=\"http://www.ratbv.ro/route/9/tour/\">9</a>",
            "longitude": "25.610864",
            "name": "Liceul Tractorul"
        },
        {
            "code": "AUCHAN_CORESI_I",
            "latitude": "45.673445",
            "lines": "&nbsp;<a href=\"http://www.ratbv.ro/route/2/tour/\">2</a>, &nbsp;<a href=\"http://www.ratbv.ro/route/9/tour/\">9</a>",
            "longitude": "25.618379",
            "name": "Auchan Coresi"
        },
        {
            "code": "LABIS_I",
            "latitude": "45.679077",
            "lines": "&nbsp;<a href=\"http://www.ratbv.ro/route/2/tour/\">2</a>, &nbsp;<a href=\"http://www.ratbv.ro/route/8/tour/\">8</a>, &nbsp;<a href=\"http://www.ratbv.ro/route/9/tour/\">9</a>",
            "longitude": "25.614235",
            "name": "N. Labis"
        }
    ]
}
