{
    "end_station": {
        "code": "VALEA_CETATII_CAP",
        "latitude": "45.630667",
        "lines": "&nbsp;<a href=\"http://www.ratbv.ro/route/10/tour/\">10</a>, &nbsp;<a href=\"http://www.ratbv.ro/route/26/tour/\">31</a>, &nbsp;<a href=\"http://www.ratbv.ro/route/27/tour/\">32</a>, &nbsp;<a href=\"http://www.ratbv.ro/route/28/tour/\">33</a>",
        "longitude": "25.601719",
        "name": "Valea Cetatii"
    },
    "number": "31",
    "start_station": {
        "code": "LIVADA_POSTEI",
        "latitude": "45.645656",
        "lines": "&nbsp;<a href=\"http://www.ratbv.ro/route/1/tour/\">1</a>, &nbsp;<a href=\"http://www.ratbv.ro/route/13/tour/\">14</a>, &nbsp;<a href=\"http://www.ratbv.ro/route/15/tour/\">16</a>, &nbsp;<a href=\"http://www.ratbv.ro/route/16/tour/\">17</a>, &nbsp;<a href=\"http://www.ratbv.ro/route/2/tour/\">2</a>, &nbsp;<a href=\"http://www.ratbv.ro/route/18/tour/\">20</a>, &nbsp;<a href=\"http://www.ratbv.ro/route/22/tour/\">24</a>, &nbsp;<a href=\"http://www.ratbv.ro/route/38/tour/\">28</a>, &nbsp;<a href=\"http://www.ratbv.ro/route/26/tour/\">31</a>, &nbsp;<a href=\"http://www.ratbv.ro/route/39/tour/\">34</a>, &nbsp;<a href=\"http://www.ratbv.ro/route/29/tour/\">34B</a>, &nbsp;<a href=\"http://www.ratbv.ro/route/31/tour/\">36</a>, &nbsp;<a href=\"http://www.ratbv.ro/route/32/tour/\">37</a>, &nbsp;<a href=\"http://www.ratbv.ro/route/4/tour/\">4</a>, &nbsp;<a href=\"http://www.ratbv.ro/route/41/tour/\">41</a>, &nbsp;<a href=\"http://www.ratbv.ro/route/44/tour/\">50</a>, &nbsp;<a href=\"http://www.ratbv.ro/route/6/tour/\">6</a>",
        "longitude": "25.588199",
        "name": "Livada Postei"
    },
    "waypoints": [
        {
            "code": "DRAMATIC",
            "latitude": "45.645361",
            "lines": "&nbsp;<a href=\"http://www.ratbv.ro/route/1/tour/\">1</a>, &nbsp;<a href=\"http://www.ratbv.ro/route/15/tour/\">16</a>, &nbsp;<a href=\"http://www.ratbv.ro/route/16/tour/\">17</a>, &nbsp;<a href=\"http://www.ratbv.ro/route/2/tour/\">2</a>, &nbsp;<a href=\"http://www.ratbv.ro/route/26/tour/\">31</a>, &nbsp;<a href=\"http://www.ratbv.ro/route/39/tour/\">34</a>, &nbsp;<a href=\"http://www.ratbv.ro/route/29/tour/\">34B</a>, &nbsp;<a href=\"http://www.ratbv.ro/route/31/tour/\">36</a>, &nbsp;<a href=\"http://www.ratbv.ro/route/32/tour/\">37</a>, &nbsp;<a href=\"http://www.ratbv.ro/route/4/tour/\">4</a>, &nbsp;<a href=\"http://www.ratbv.ro/route/35/tour/\">5</a>, &nbsp;<a href=\"http://www.ratbv.ro/route/6/tour/\">6</a>",
            "longitude": "25.598176",
            "name": "Dramatic"
        },
        {
            "code": "PATRIA",
            "latitude": "45.648652",
            "lines": "&nbsp;<a href=\"http://www.ratbv.ro/route/1/tour/\">1</a>, &nbsp;<a href=\"http://www.ratbv.ro/route/16/tour/\">17</a>, &nbsp;<a href=\"http://www.ratbv.ro/route/2/tour/\">2</a>, &nbsp;<a href=\"http://www.ratbv.ro/route/20/tour/\">22</a>, &nbsp;<a href=\"http://www.ratbv.ro/route/26/tour/\">31</a>, &nbsp;<a href=\"http://www.ratbv.ro/route/39/tour/\">34</a>, &nbsp;<a href=\"http://www.ratbv.ro/route/29/tour/\">34B</a>, &nbsp;<a href=\"http://www.ratbv.ro/route/32/tour/\">37</a>, &nbsp;<a href=\"http://www.ratbv.ro/route/4/tour/\">4</a>, &nbsp;<a href=\"http://www.ratbv.ro/route/35/tour/\">5</a>, &nbsp;<a href=\"http://www.ratbv.ro/route/43/tour/\">52</a>, &nbsp;<a href=\"http://www.ratbv.ro/route/6/tour/\">6</a>",
            "longitude": "25.605112",
            "name": "Patria"
        },
        {
            "code": "HIDRO_A",
            "latitude": "45.651163",
            "lines": "&nbsp;<a href=\"http://www.ratbv.ro/route/1/tour/\">1</a>, &nbsp;<a href=\"http://www.ratbv.ro/route/10/tour/\">10</a>, &nbsp;<a href=\"http://www.ratbv.ro/route/16/tour/\">17</a>, &nbsp;<a href=\"http://www.ratbv.ro/route/20/tour/\">22</a>, &nbsp;<a href=\"http://www.ratbv.ro/route/26/tour/\">31</a>, &nbsp;<a href=\"http://www.ratbv.ro/route/39/tour/\">34</a>, &nbsp;<a href=\"http://www.ratbv.ro/route/29/tour/\">34B</a>, &nbsp;<a href=\"http://www.ratbv.ro/route/32/tour/\">37</a>, &nbsp;<a href=\"http://www.ratbv.ro/route/4/tour/\">4</a>, &nbsp;<a href=\"http://www.ratbv.ro/route/35/tour/\">5</a>, &nbsp;<a href=\"http://www.ratbv.ro/route/43/tour/\">52</a>, &nbsp;<a href=\"http://www.ratbv.ro/route/6/tour/\">6</a>",
            "longitude": "25.609808",
            "name": "Hidro A"
        },
        {
            "code": "SPIT_JUD_CETATE",
            "latitude": "45.647421",
            "lines": "&nbsp;<a href=\"http://www.ratbv.ro/route/10/tour/\">10</a>, &nbsp;<a href=\"http://www.ratbv.ro/route/26/tour/\">31</a>, &nbsp;<a href=\"http://www.ratbv.ro/route/27/tour/\">32</a>",
            "longitude": "25.61924",
            "name": "Spitalul Judetean"
        },
        {
            "code": "PIATA_DECEB_I",
            "latitude": "45.643139",
            "lines": "&nbsp;<a href=\"http://www.ratbv.ro/route/10/tour/\">10</a>, &nbsp;<a href=\"http://www.ratbv.ro/route/26/tour/\">31</a>, &nbsp;<a href=\"http://www.ratbv.ro/route/27/tour/\">32</a>",
            "longitude": "25.617754",
            "name": "Piata Decebal"
        },
        {
            "code": "CARPATIILOR_I",
            "latitude": "45.641852",
            "lines": "&nbsp;<a href=\"http://www.ratbv.ro/route/10/tour/\">10</a>, &nbsp;<a href=\"http://www.ratbv.ro/route/26/tour/\">31</a>, &nbsp;<a href=\"http://www.ratbv.ro/route/27/tour/\">32</a>, &nbsp;<a href=\"http://www.ratbv.ro/route/28/tour/\">33</a>",
            "longitude": "25.614594",
            "name": "Carpatilor"
        },
        {
            "code": "MUNCII_I",
            "latitude": "45.640022",
            "lines": "&nbsp;<a href=\"http://www.ratbv.ro/route/10/tour/\">10</a>, &nbsp;<a href=\"http://www.ratbv.ro/route/26/tour/\">31</a>, &nbsp;<a href=\"http://www.ratbv.ro/route/27/tour/\">32</a>, &nbsp;<a href=\"http://www.ratbv.ro/route/28/tour/\">33</a>",
            "longitude": "25.611464",
            "name": "Muncii"
        },
        {
            "code": "SC_GEN_20_I",
            "latitude": "45.638042",
            "lines": "&nbsp;<a href=\"http://www.ratbv.ro/route/10/tour/\">10</a>, &nbsp;<a href=\"http://www.ratbv.ro/route/26/tour/\">31</a>, &nbsp;<a href=\"http://www.ratbv.ro/route/27/tour/\">32</a>, &nbsp;<a href=\"http://www.ratbv.ro/route/28/tour/\">33</a>",
            "longitude": "25.609511",
            "name": "Sc. Gen. 20"
        },
        {
            "code": "SC_GEN_25",
            "latitude": "45.634116",
            "lines": "&nbsp;<a href=\"http://www.ratbv.ro/route/10/tour/\">10</a>, &nbsp;<a href=\"http://www.ratbv.ro/route/26/tour/\">31</a>, &nbsp;<a href=\"http://www.ratbv.ro/route/27/tour/\">32</a>, &nbsp;<a href=\"http://www.ratbv.ro/route/28/tour/\">33</a>",
            "longitude": "25.605992",
            "name": "Sc. Gen. 25"
        },
        {
            "code": "FRAGILOR_I",
            "latitude": "45.632567",
            "lines": "&nbsp;<a href=\"http://www.ratbv.ro/route/10/tour/\">10</a>, &nbsp;<a href=\"http://www.ratbv.ro/route/26/tour/\">31</a>, &nbsp;<a href=\"http://www.ratbv.ro/route/27/tour/\">32</a>, &nbsp;<a href=\"http://www.ratbv.ro/route/28/tour/\">33</a>",
            "longitude": "25.604732",
            "name": "Fragilor"
        }
    ]
}
