{
    "end_station": {
        "code": "GARA",
        "latitude": "45.660703",
        "lines": "&nbsp;<a href=\"http://www.ratbv.ro/route/17/tour/\">17B</a>, &nbsp;<a href=\"http://www.ratbv.ro/route/24/tour/\">29</a>, &nbsp;<a href=\"http://www.ratbv.ro/route/27/tour/\">32</a>, &nbsp;<a href=\"http://www.ratbv.ro/route/30/tour/\">35</a>, &nbsp;<a href=\"http://www.ratbv.ro/route/32/tour/\">37</a>, &nbsp;<a href=\"http://www.ratbv.ro/route/4/tour/\">4</a>, &nbsp;<a href=\"http://www.ratbv.ro/route/33/tour/\">40</a>, &nbsp;<a href=\"http://www.ratbv.ro/route/34/tour/\">51</a>",
        "longitude": "25.613443",
        "name": "Gara Brasov"
    },
    "number": "17B",
    "start_station": {
        "code": "BENZINARIA_PETROM",
        "latitude": "45.573156",
        "lines": "&nbsp;<a href=\"http://www.ratbv.ro/route/17/tour/\">17B</a>",
        "longitude": "25.613809",
        "name": "Benzinaria Petrom"
    },
    "waypoints": [
        {
            "code": "HALTA_TIMIS_JOS_D",
            "latitude": "45.585186",
            "lines": "&nbsp;<a href=\"http://www.ratbv.ro/route/17/tour/\">17B</a>",
            "longitude": "25.624041",
            "name": "Halta Timisul de Jos"
        },
        {
            "code": "FACU_17B_D",
            "latitude": "45.587613",
            "lines": "&nbsp;<a href=\"http://www.ratbv.ro/route/17/tour/\">17B</a>",
            "longitude": "25.627437",
            "name": "Facultativa"
        },
        {
            "code": "DAMBUL_MORII_D",
            "latitude": "45.595486",
            "lines": "&nbsp;<a href=\"http://www.ratbv.ro/route/17/tour/\">17B</a>",
            "longitude": "25.637079",
            "name": "Dambul Morii"
        },
        {
            "code": "PANTEX_D",
            "latitude": "45.606622",
            "lines": "&nbsp;<a href=\"http://www.ratbv.ro/route/17/tour/\">17B</a>",
            "longitude": "25.653296",
            "name": "Pantex"
        },
        {
            "code": "AURORA_17_D",
            "latitude": "45.617662",
            "lines": "&nbsp;<a href=\"http://www.ratbv.ro/route/17/tour/\">17B</a>",
            "longitude": "25.651754",
            "name": "Aurora"
        },
        {
            "code": "SELGROS_D",
            "latitude": "45.624412",
            "lines": "&nbsp;<a href=\"http://www.ratbv.ro/route/16/tour/\">17</a>, &nbsp;<a href=\"http://www.ratbv.ro/route/17/tour/\">17B</a>, &nbsp;<a href=\"http://www.ratbv.ro/route/19/tour/\">21</a>, &nbsp;<a href=\"http://www.ratbv.ro/route/30/tour/\">35</a>",
            "longitude": "25.644708",
            "name": "Selgros"
        },
        {
            "code": "CARREFOUR_D",
            "latitude": "45.631564",
            "lines": "&nbsp;<a href=\"http://www.ratbv.ro/route/16/tour/\">17</a>, &nbsp;<a href=\"http://www.ratbv.ro/route/17/tour/\">17B</a>, &nbsp;<a href=\"http://www.ratbv.ro/route/19/tour/\">21</a>, &nbsp;<a href=\"http://www.ratbv.ro/route/30/tour/\">35</a>, &nbsp;<a href=\"http://www.ratbv.ro/route/43/tour/\">52</a>",
            "longitude": "25.63716",
            "name": "Carrefour"
        },
        {
            "code": "SATURN",
            "latitude": "45.634593",
            "lines": "&nbsp;<a href=\"http://www.ratbv.ro/route/17/tour/\">17B</a>, &nbsp;<a href=\"http://www.ratbv.ro/route/19/tour/\">21</a>, &nbsp;<a href=\"http://www.ratbv.ro/route/20/tour/\">22</a>, &nbsp;<a href=\"http://www.ratbv.ro/route/37/tour/\">23</a>, &nbsp;<a href=\"http://www.ratbv.ro/route/23/tour/\">25</a>, &nbsp;<a href=\"http://www.ratbv.ro/route/33/tour/\">40</a>, &nbsp;<a href=\"http://www.ratbv.ro/route/43/tour/\">52</a>, &nbsp;<a href=\"http://www.ratbv.ro/route/6/tour/\">6</a>, &nbsp;<a href=\"http://www.ratbv.ro/route/8/tour/\">8</a>",
            "longitude": "25.635266",
            "name": "Saturn"
        },
        {
            "code": "COMETEI_D",
            "latitude": "45.637091",
            "lines": "&nbsp;<a href=\"http://www.ratbv.ro/route/17/tour/\">17B</a>, &nbsp;<a href=\"http://www.ratbv.ro/route/19/tour/\">21</a>, &nbsp;<a href=\"http://www.ratbv.ro/route/20/tour/\">22</a>, &nbsp;<a href=\"http://www.ratbv.ro/route/37/tour/\">23</a>, &nbsp;<a href=\"http://www.ratbv.ro/route/23/tour/\">25</a>, &nbsp;<a href=\"http://www.ratbv.ro/route/33/tour/\">40</a>, &nbsp;<a href=\"http://www.ratbv.ro/route/43/tour/\">52</a>, &nbsp;<a href=\"http://www.ratbv.ro/route/6/tour/\">6</a>, &nbsp;<a href=\"http://www.ratbv.ro/route/8/tour/\">8</a>",
            "longitude": "25.636484",
            "name": "Cometei"
        },
        {
            "code": "NEPTUN_D",
            "latitude": "45.64174",
            "lines": "&nbsp;<a href=\"http://www.ratbv.ro/route/17/tour/\">17B</a>, &nbsp;<a href=\"http://www.ratbv.ro/route/19/tour/\">21</a>, &nbsp;<a href=\"http://www.ratbv.ro/route/20/tour/\">22</a>, &nbsp;<a href=\"http://www.ratbv.ro/route/37/tour/\">23</a>, &nbsp;<a href=\"http://www.ratbv.ro/route/23/tour/\">25</a>, &nbsp;<a href=\"http://www.ratbv.ro/route/33/tour/\">40</a>, &nbsp;<a href=\"http://www.ratbv.ro/route/43/tour/\">52</a>, &nbsp;<a href=\"http://www.ratbv.ro/route/6/tour/\">6</a>, &nbsp;<a href=\"http://www.ratbv.ro/route/8/tour/\">8</a>",
            "longitude": "25.635282",
            "name": "Neptun"
        },
        {
            "code": "COMPLEX_D",
            "latitude": "45.645338",
            "lines": "&nbsp;<a href=\"http://www.ratbv.ro/route/17/tour/\">17B</a>, &nbsp;<a href=\"http://www.ratbv.ro/route/19/tour/\">21</a>, &nbsp;<a href=\"http://www.ratbv.ro/route/20/tour/\">22</a>, &nbsp;<a href=\"http://www.ratbv.ro/route/37/tour/\">23</a>, &nbsp;<a href=\"http://www.ratbv.ro/route/23/tour/\">25</a>, &nbsp;<a href=\"http://www.ratbv.ro/route/33/tour/\">40</a>, &nbsp;<a href=\"http://www.ratbv.ro/route/43/tour/\">52</a>, &nbsp;<a href=\"http://www.ratbv.ro/route/6/tour/\">6</a>, &nbsp;<a href=\"http://www.ratbv.ro/route/8/tour/\">8</a>",
            "longitude": "25.631476",
            "name": "Complexul Mare"
        },
        {
            "code": "GEMENII_D",
            "latitude": "45.648061",
            "lines": "&nbsp;<a href=\"http://www.ratbv.ro/route/17/tour/\">17B</a>, &nbsp;<a href=\"http://www.ratbv.ro/route/19/tour/\">21</a>, &nbsp;<a href=\"http://www.ratbv.ro/route/20/tour/\">22</a>, &nbsp;<a href=\"http://www.ratbv.ro/route/37/tour/\">23</a>, &nbsp;<a href=\"http://www.ratbv.ro/route/23/tour/\">25</a>, &nbsp;<a href=\"http://www.ratbv.ro/route/33/tour/\">40</a>, &nbsp;<a href=\"http://www.ratbv.ro/route/43/tour/\">52</a>, &nbsp;<a href=\"http://www.ratbv.ro/route/6/tour/\">6</a>, &nbsp;<a href=\"http://www.ratbv.ro/route/8/tour/\">8</a>",
            "longitude": "25.62859",
            "name": "Gemenii"
        },
        {
            "code": "PANAIT_CERNA",
            "latitude": "45.650645",
            "lines": "&nbsp;<a href=\"http://www.ratbv.ro/route/17/tour/\">17B</a>, &nbsp;<a href=\"http://www.ratbv.ro/route/19/tour/\">21</a>, &nbsp;<a href=\"http://www.ratbv.ro/route/37/tour/\">23</a>, &nbsp;<a href=\"http://www.ratbv.ro/route/23/tour/\">25</a>, &nbsp;<a href=\"http://www.ratbv.ro/route/29/tour/\">34B</a>, &nbsp;<a href=\"http://www.ratbv.ro/route/33/tour/\">40</a>, &nbsp;<a href=\"http://www.ratbv.ro/route/8/tour/\">8</a>",
            "longitude": "25.626066",
            "name": "Panait Cerna"
        },
        {
            "code": "BRANDUSE_GARA",
            "latitude": "45.654882",
            "lines": "&nbsp;<a href=\"http://www.ratbv.ro/route/17/tour/\">17B</a>, &nbsp;<a href=\"http://www.ratbv.ro/route/19/tour/\">21</a>, &nbsp;<a href=\"http://www.ratbv.ro/route/37/tour/\">23</a>, &nbsp;<a href=\"http://www.ratbv.ro/route/23/tour/\">25</a>, &nbsp;<a href=\"http://www.ratbv.ro/route/29/tour/\">34B</a>, &nbsp;<a href=\"http://www.ratbv.ro/route/33/tour/\">40</a>, &nbsp;<a href=\"http://www.ratbv.ro/route/8/tour/\">8</a>",
            "longitude": "25.623926",
            "name": "Branduselor"
        },
        {
            "code": "SALA_SPORT",
            "latitude": "45.659001",
            "lines": "&nbsp;<a href=\"http://www.ratbv.ro/route/17/tour/\">17B</a>, &nbsp;<a href=\"http://www.ratbv.ro/route/37/tour/\">23</a>, &nbsp;<a href=\"http://www.ratbv.ro/route/21/tour/\">23B</a>, &nbsp;<a href=\"http://www.ratbv.ro/route/23/tour/\">25</a>, &nbsp;<a href=\"http://www.ratbv.ro/route/29/tour/\">34B</a>, &nbsp;<a href=\"http://www.ratbv.ro/route/32/tour/\">37</a>, &nbsp;<a href=\"http://www.ratbv.ro/route/33/tour/\">40</a>, &nbsp;<a href=\"http://www.ratbv.ro/route/8/tour/\">8</a>",
            "longitude": "25.62082",
            "name": "Sala Sporturilor"
        }
    ]
}
